# OBJ File Exported By Crafty (c) 2006 Ryan Gregg
# http://nemesis.thewavelength.net/

mtllib beardgoateewide.mtl

v 1.320912 4.674284 1.481005
v 1.119733 4.699105 1.273678
v 1.349341 4.561691 1.283482
v 1.252662 4.625344 1.406371
v 0.634180 4.957029 0.500367
v 1.462035 4.276052 0.422787
v 0.865894 4.972764 1.260751
v 0.269134 5.331336 1.352420
v 0.838808 5.016873 1.393711
v 0.589866 5.179024 1.203263
v 0.569315 5.221403 1.355139
v 0.897967 4.904969 1.118919
v 0.269809 5.290817 1.214419
v 0.929042 4.827590 0.948421
v 0.264848 5.191502 1.026932
v 0.590387 5.092842 1.025079
v 1.190122 4.637238 1.118292
v 1.289185 4.505059 0.816319
v 1.007393 4.729783 0.620251
v 0.267325 5.119698 0.833681
v 0.292001 5.082547 0.490058
v 0.580573 5.034585 0.841573
v 1.102483 4.695894 0.188529
v 0.298639 5.051100 0.022439
v 0.686884 4.900429 0.069410
v 1.602036 4.171480 0.025748
v 1.199380 4.584633 -0.238968
v 1.807106 4.010051 -1.069790
v 0.341364 5.049524 -2.178918
v 0.754760 4.802740 -0.366850
v 0.306758 4.924068 -0.427216
v 0.334245 5.086840 -1.282275
v 1.531627 4.429799 1.048536
v 1.770933 4.045790 0.697674
v 1.735881 3.932079 -1.949960
v 0.846280 4.836779 -1.239172
v 1.944971 3.874853 0.293888
v 1.266093 4.383198 -2.064388
v 0.827310 4.760416 -2.139339
v 1.326309 4.463653 -1.173710
v 2.348315 3.467362 0.832994
v 2.161114 3.503303 -1.833184
v 2.584753 3.180939 -0.783595
v 2.194041 3.632858 -0.950347
v 2.633984 2.843804 -1.622334
v 1.750825 4.452084 1.610473
v 2.163712 3.996364 1.509685
v 2.026279 3.965479 1.047449
v 1.460475 4.631096 1.425343
v 1.684335 4.418232 1.276689
v -1.323791 4.678782 1.491906
v -1.257194 4.623382 1.408221
v -1.130404 4.700160 1.276766
v -1.352947 4.558857 1.286282
v -0.635006 4.956711 0.497835
v -1.461780 4.276415 0.423720
v 0.000963 5.335139 1.368710
v -0.267546 5.329025 1.374119
v -0.842534 5.018857 1.391611
v -0.001303 5.199518 1.035924
v -0.867324 4.975639 1.262567
v -0.591653 5.177383 1.200215
v -0.568678 5.222035 1.353132
v -0.269813 5.188742 1.038184
v -0.269721 5.287675 1.229951
v -0.002335 5.084373 0.007066
v -0.592795 5.090962 1.023506
v -0.583862 5.032359 0.838685
v -0.930779 4.826613 0.953604
v -0.902320 4.904164 1.120431
v -0.001827 5.125623 0.839211
v -1.191367 4.632544 1.120429
v 0.001759 5.103672 0.501389
v -0.000311 5.297156 1.217597
v -0.291225 5.078786 0.489158
v -0.270189 5.118017 0.831099
v -1.005246 4.730749 0.620894
v -1.284685 4.506931 0.815602
v -0.300390 5.049779 0.020942
v -1.099212 4.698708 0.188113
v -0.687738 4.898282 0.066261
v -1.600955 4.173290 0.026583
v -1.196921 4.587762 -0.237525
v 0.000011 5.159618 -1.296320
v 0.000012 5.174660 -2.187452
v -0.004055 5.013726 -0.438166
v -0.308187 4.920081 -0.431904
v -0.341341 5.049525 -2.178917
v -0.334218 5.086842 -1.282274
v -0.753936 4.800593 -0.370093
v -1.770025 4.048779 0.699503
v -1.266074 4.383202 -2.064388
v -0.827282 4.760418 -2.139338
v -1.529952 4.428627 1.046276
v -1.735861 3.932083 -1.949961
v -1.810549 4.009157 -1.068335
v -0.846246 4.836781 -1.239174
v -1.319234 4.466997 -1.172556
v -1.943114 3.879645 0.295444
v -2.343928 3.473616 0.831527
v -2.156353 3.505069 -1.833143
v -2.193082 3.632850 -0.950749
v -2.626786 2.845811 -1.615793
v -2.584741 3.180947 -0.783601
v -2.024051 3.969714 1.051175
v -1.463348 4.631166 1.426771
v -1.684870 4.417526 1.275218
v -1.748739 4.454568 1.613702
v -2.162445 3.998471 1.512840
v 1.320912 4.674284 1.481005
v 1.119733 4.699105 1.273678
v 1.349341 4.561691 1.283482
v 1.252662 4.625344 1.406371
v 0.634180 4.957029 0.500367
v 1.462035 4.276052 0.422787
v 0.269134 5.331336 1.352420
v 0.838808 5.016873 1.393711
v 0.589866 5.179024 1.203263
v 0.569315 5.221403 1.355139
v 0.865894 4.972764 1.260751
v 1.190122 4.637238 1.118292
v 0.264848 5.191502 1.026932
v 0.897967 4.904969 1.118919
v 0.929042 4.827590 0.948421
v 0.590387 5.092842 1.025079
v 0.580573 5.034585 0.841573
v 1.007393 4.729783 0.620251
v 1.289185 4.505059 0.816319
v 0.269809 5.290817 1.214419
v 0.292001 5.082547 0.490058
v 0.267325 5.119698 0.833681
v 1.102483 4.695894 0.188529
v 0.298639 5.051100 0.022439
v 0.686884 4.900429 0.069410
v 1.602036 4.171480 0.025748
v 1.199380 4.584633 -0.238968
v 0.306758 4.924068 -0.427216
v 0.754760 4.802740 -0.366850
v 0.341364 5.049524 -2.178918
v 0.334245 5.086840 -1.282275
v 0.827310 4.760416 -2.139339
v 1.266093 4.383198 -2.064388
v 1.326309 4.463653 -1.173710
v 1.531627 4.429799 1.048536
v 1.807106 4.010051 -1.069790
v 1.735881 3.932079 -1.949960
v 0.846280 4.836779 -1.239172
v 1.770933 4.045790 0.697674
v 2.348315 3.467362 0.832994
v 1.944971 3.874853 0.293888
v 2.584753 3.180939 -0.783595
v 2.633984 2.843804 -1.622334
v 2.026279 3.965479 1.047449
v 2.194041 3.632858 -0.950347
v 2.161114 3.503303 -1.833184
v 1.684335 4.418232 1.276689
v 1.750825 4.452084 1.610473
v 1.460475 4.631096 1.425343
v 2.163712 3.996364 1.509685
v -1.323791 4.678782 1.491906
v -1.130404 4.700160 1.276766
v -1.352947 4.558857 1.286282
v -1.257194 4.623382 1.408221
v -0.635006 4.956711 0.497835
v -1.461780 4.276415 0.423720
v 0.000963 5.335139 1.368710
v -0.842534 5.018857 1.391611
v -0.267546 5.329025 1.374119
v -0.867324 4.975639 1.262567
v -0.591653 5.177383 1.200215
v -0.269721 5.287675 1.229951
v -0.269813 5.188742 1.038184
v -0.002335 5.084373 0.007066
v 0.001759 5.103672 0.501389
v -0.568678 5.222035 1.353132
v -0.592795 5.090962 1.023506
v -0.583862 5.032359 0.838685
v -0.930779 4.826613 0.953604
v -1.191367 4.632544 1.120429
v -0.001827 5.125623 0.839211
v -0.902320 4.904164 1.120431
v -0.000311 5.297156 1.217597
v -0.270189 5.118017 0.831099
v -0.291225 5.078786 0.489158
v -0.001303 5.199518 1.035924
v -1.284685 4.506931 0.815602
v -1.005246 4.730749 0.620894
v -0.300390 5.049779 0.020942
v -1.099212 4.698708 0.188113
v -0.687738 4.898282 0.066261
v -1.196921 4.587762 -0.237525
v -1.600955 4.173290 0.026583
v 0.000012 5.174660 -2.187452
v 0.000011 5.159618 -1.296320
v -0.004055 5.013726 -0.438166
v -1.810549 4.009157 -1.068335
v -0.308187 4.920081 -0.431904
v -0.334218 5.086842 -1.282274
v -0.341341 5.049525 -2.178917
v -0.753936 4.800593 -0.370093
v -1.529952 4.428627 1.046276
v -1.770025 4.048779 0.699503
v -1.319234 4.466997 -1.172556
v -1.266074 4.383202 -2.064388
v -0.827282 4.760418 -2.139338
v -0.846246 4.836781 -1.239174
v -1.943114 3.879645 0.295444
v -1.735861 3.932083 -1.949961
v -2.343928 3.473616 0.831527
v -2.193082 3.632850 -0.950749
v -2.626786 2.845811 -1.615793
v -2.584741 3.180947 -0.783601
v -2.156353 3.505069 -1.833143
v -1.463348 4.631166 1.426771
v -2.162445 3.998471 1.512840
v -1.684870 4.417526 1.275218
v -1.748739 4.454568 1.613702
v -2.024051 3.969714 1.051175
vn -0.028924 -0.823565 0.566484
vn -0.580420 -0.810359 0.080201
vn -0.372604 -0.879859 0.294981
vn -0.264533 -0.914370 0.306512
vn -0.425612 -0.901717 0.075899
vn -0.690797 -0.722755 0.020633
vn -0.591752 -0.776251 0.217401
vn -0.167140 -0.948134 0.270382
vn -0.611196 -0.780010 0.134254
vn -0.465622 -0.837205 0.286851
vn -0.455423 -0.869996 0.188937
vn -0.622142 -0.749798 0.225262
vn -0.160525 -0.917777 0.363203
vn -0.611683 -0.777300 0.147135
vn -0.139142 -0.902577 0.407423
vn -0.433117 -0.836145 0.336558
vn -0.582113 -0.804996 0.114567
vn -0.629912 -0.764802 0.135236
vn -0.577072 -0.816588 0.013150
vn -0.158842 -0.961833 0.222817
vn -0.212184 -0.974278 0.075899
vn -0.400080 -0.890447 0.216888
vn -0.597495 -0.801439 0.026366
vn -0.241270 -0.961617 0.130697
vn -0.415812 -0.903503 0.103839
vn -0.684224 -0.729224 -0.008383
vn -0.602207 -0.797071 0.044996
vn -0.698628 -0.713746 0.049862
vn -0.417000 -0.907483 0.050858
vn -0.412268 -0.910021 0.043551
vn -0.267118 -0.963115 0.032527
vn -0.316921 -0.945964 -0.068649
vn -0.516742 -0.805204 0.290903
vn -0.671151 -0.718409 0.182879
vn -0.707637 -0.696553 0.118587
vn -0.535528 -0.844460 -0.009813
vn -0.687869 -0.725798 0.007303
vn -0.678844 -0.725774 0.111453
vn -0.578101 -0.810851 0.091215
vn -0.651125 -0.757993 0.038509
vn -0.732324 -0.668663 0.128808
vn -0.770869 -0.625485 0.120540
vn -0.770734 -0.629118 0.100897
vn -0.743162 -0.665507 0.069359
vn -0.806495 -0.573178 0.145026
vn -0.663634 -0.719376 0.205153
vn -0.721271 -0.646885 0.247605
vn -0.710100 -0.633529 0.307245
vn -0.286414 -0.829994 0.478620
vn -0.588708 -0.755085 0.288564
vn 0.019417 -0.826499 0.562604
vn 0.266964 -0.912235 0.310738
vn 0.596987 -0.794677 0.109979
vn 0.372715 -0.876636 0.304290
vn 0.422973 -0.902936 0.076163
vn 0.688218 -0.725236 0.019723
vn 0.014271 -0.969762 0.243635
vn 0.167538 -0.949907 0.263834
vn 0.602603 -0.784396 0.146942
vn 0.011550 -0.912538 0.408829
vn 0.586942 -0.777802 0.224775
vn 0.452335 -0.841623 0.295066
vn 0.436801 -0.877744 0.196904
vn 0.147241 -0.908699 0.390623
vn 0.164013 -0.920773 0.353944
vn 0.002599 -0.995044 0.099401
vn 0.427340 -0.839716 0.335048
vn 0.402405 -0.890133 0.213853
vn 0.613686 -0.774112 0.155374
vn 0.618303 -0.748738 0.238941
vn 0.002135 -0.976986 0.213295
vn 0.589176 -0.796953 0.133182
vn 0.004186 -0.997397 0.071979
vn 0.016598 -0.930128 0.366861
vn 0.212017 -0.974229 0.076985
vn 0.161566 -0.962852 0.216362
vn 0.578065 -0.815896 0.012460
vn 0.629706 -0.765588 0.131702
vn 0.244506 -0.960873 0.130155
vn 0.595422 -0.802986 0.026209
vn 0.415145 -0.903479 0.106677
vn 0.683025 -0.730355 -0.007660
vn 0.600108 -0.798558 0.046652
vn 0.000673 -0.994971 -0.100161
vn -0.000002 -0.999680 0.025302
vn 0.008822 -0.999549 0.028689
vn 0.272562 -0.961617 0.031676
vn 0.417000 -0.907483 0.050856
vn 0.316487 -0.945949 -0.070829
vn 0.409578 -0.911205 0.044178
vn 0.669729 -0.719850 0.182423
vn 0.678854 -0.726184 0.108696
vn 0.578604 -0.810571 0.090507
vn 0.514775 -0.806470 0.290883
vn 0.707820 -0.696344 0.118722
vn 0.698322 -0.714010 0.050357
vn 0.536592 -0.843767 -0.011201
vn 0.649625 -0.759297 0.038145
vn 0.687515 -0.726124 0.008198
vn 0.732315 -0.668787 0.128217
vn 0.772862 -0.622669 0.122340
vn 0.744661 -0.663649 0.071060
vn 0.807504 -0.570769 0.148861
vn 0.770344 -0.629017 0.104440
vn 0.710222 -0.634295 0.305377
vn 0.277703 -0.829258 0.484988
vn 0.587323 -0.755603 0.290027
vn 0.664777 -0.718626 0.204081
vn 0.721321 -0.647372 0.246182
vn 0.028924 0.823565 -0.566484
vn 0.580420 0.810359 -0.080201
vn 0.372604 0.879859 -0.294981
vn 0.264533 0.914370 -0.306512
vn 0.425612 0.901717 -0.075899
vn 0.690797 0.722755 -0.020633
vn 0.167140 0.948134 -0.270382
vn 0.611196 0.780010 -0.134254
vn 0.465622 0.837205 -0.286851
vn 0.455423 0.869996 -0.188937
vn 0.591752 0.776251 -0.217401
vn 0.582113 0.804996 -0.114567
vn 0.139142 0.902577 -0.407423
vn 0.622142 0.749798 -0.225262
vn 0.611683 0.777300 -0.147135
vn 0.433117 0.836145 -0.336558
vn 0.400080 0.890447 -0.216888
vn 0.577072 0.816588 -0.013150
vn 0.629912 0.764802 -0.135236
vn 0.160525 0.917777 -0.363203
vn 0.212184 0.974278 -0.075899
vn 0.158842 0.961833 -0.222817
vn 0.597495 0.801439 -0.026366
vn 0.241270 0.961617 -0.130697
vn 0.415812 0.903503 -0.103839
vn 0.684224 0.729224 0.008383
vn 0.602207 0.797071 -0.044996
vn 0.267118 0.963115 -0.032527
vn 0.412268 0.910021 -0.043551
vn 0.417000 0.907483 -0.050858
vn 0.316921 0.945964 0.068649
vn 0.578101 0.810851 -0.091215
vn 0.678844 0.725774 -0.111453
vn 0.651125 0.757993 -0.038509
vn 0.516742 0.805204 -0.290903
vn 0.698628 0.713746 -0.049862
vn 0.707637 0.696553 -0.118587
vn 0.535528 0.844461 0.009813
vn 0.671151 0.718409 -0.182879
vn 0.732324 0.668663 -0.128808
vn 0.687869 0.725798 -0.007303
vn 0.770734 0.629118 -0.100897
vn 0.806495 0.573178 -0.145026
vn 0.710100 0.633529 -0.307245
vn 0.743162 0.665507 -0.069359
vn 0.770869 0.625485 -0.120540
vn 0.588708 0.755085 -0.288564
vn 0.663634 0.719376 -0.205153
vn 0.286414 0.829994 -0.478620
vn 0.721271 0.646885 -0.247605
vn -0.019417 0.826499 -0.562604
vn -0.596987 0.794677 -0.109979
vn -0.372715 0.876636 -0.304290
vn -0.266964 0.912235 -0.310738
vn -0.422973 0.902936 -0.076163
vn -0.688218 0.725236 -0.019723
vn -0.014271 0.969762 -0.243635
vn -0.602603 0.784396 -0.146942
vn -0.167538 0.949907 -0.263834
vn -0.586942 0.777801 -0.224775
vn -0.452335 0.841623 -0.295066
vn -0.164013 0.920773 -0.353944
vn -0.147241 0.908699 -0.390623
vn -0.002599 0.995044 -0.099401
vn -0.004186 0.997397 -0.071979
vn -0.436801 0.877744 -0.196904
vn -0.427340 0.839716 -0.335048
vn -0.402405 0.890133 -0.213853
vn -0.613685 0.774112 -0.155374
vn -0.589176 0.796953 -0.133182
vn -0.002135 0.976986 -0.213295
vn -0.618303 0.748738 -0.238941
vn -0.016598 0.930128 -0.366861
vn -0.161565 0.962852 -0.216362
vn -0.212017 0.974229 -0.076985
vn -0.011550 0.912538 -0.408830
vn -0.629706 0.765588 -0.131702
vn -0.578065 0.815896 -0.012460
vn -0.244506 0.960873 -0.130155
vn -0.595422 0.802986 -0.026209
vn -0.415145 0.903479 -0.106677
vn -0.600108 0.798558 -0.046652
vn -0.683025 0.730355 0.007660
vn 0.000002 0.999680 -0.025302
vn -0.000673 0.994971 0.100161
vn -0.008822 0.999549 -0.028689
vn -0.698322 0.714010 -0.050357
vn -0.272562 0.961617 -0.031676
vn -0.316487 0.945949 0.070829
vn -0.417000 0.907483 -0.050856
vn -0.409578 0.911205 -0.044178
vn -0.514775 0.806470 -0.290883
vn -0.669729 0.719850 -0.182423
vn -0.649625 0.759297 -0.038145
vn -0.678854 0.726184 -0.108696
vn -0.578604 0.810571 -0.090507
vn -0.536592 0.843767 0.011201
vn -0.687515 0.726124 -0.008198
vn -0.707820 0.696344 -0.118722
vn -0.732315 0.668787 -0.128217
vn -0.744661 0.663649 -0.071060
vn -0.807504 0.570769 -0.148861
vn -0.770344 0.629017 -0.104440
vn -0.772862 0.622669 -0.122340
vn -0.277703 0.829258 -0.484988
vn -0.721321 0.647372 -0.246182
vn -0.587323 0.755603 -0.290027
vn -0.664777 0.718626 -0.204081
vn -0.710222 0.634295 -0.305377
vt 0.410081 -0.195440
vt 0.423877 -0.212328
vt 0.408901 -0.210321
vt 0.414838 -0.201264
vt 0.460538 -0.270309
vt 0.400389 -0.280059
vt 0.443035 -0.211415
vt 0.484723 -0.203160
vt 0.444615 -0.201310
vt 0.464078 -0.213833
vt 0.463922 -0.203782
vt 0.440917 -0.223335
vt 0.484468 -0.213376
vt 0.438634 -0.235016
vt 0.484356 -0.229958
vt 0.463003 -0.229866
vt 0.420588 -0.223723
vt 0.413900 -0.245949
vt 0.434696 -0.260949
vt 0.483382 -0.244838
vt 0.483646 -0.271562
vt 0.461974 -0.243062
vt 0.426098 -0.294862
vt 0.484316 -0.304809
vt 0.458338 -0.302021
vt 0.385053 -0.316651
vt 0.416834 -0.330039
vt 0.364766 -0.382875
vt 0.482729 -0.433676
vt 0.452358 -0.336873
vt 0.484634 -0.338563
vt 0.484100 -0.389282
vt 0.395400 -0.227987
vt 0.372674 -0.261462
vt 0.358591 -0.431549
vt 0.446333 -0.388947
vt 0.349844 -0.298701
vt 0.402095 -0.431549
vt 0.442352 -0.432213
vt 0.407041 -0.387841
vt 0.320611 -0.256438
vt 0.319515 -0.431549
vt 0.286443 -0.367980
vt 0.325623 -0.375782
vt 0.278206 -0.431549
vt 0.380476 -0.185215
vt 0.349335 -0.196956
vt 0.358273 -0.232416
vt 0.401085 -0.200330
vt 0.382684 -0.212465
vt 0.592258 -0.195440
vt 0.587501 -0.201264
vt 0.578461 -0.212328
vt 0.593438 -0.210321
vt 0.541800 -0.270309
vt 0.601950 -0.280059
vt 0.501169 -0.203160
vt 0.517615 -0.203160
vt 0.557724 -0.201310
vt 0.501169 -0.229958
vt 0.559304 -0.211415
vt 0.538261 -0.213833
vt 0.538416 -0.203782
vt 0.517983 -0.229958
vt 0.517871 -0.213376
vt 0.501169 -0.304809
vt 0.539335 -0.229866
vt 0.540365 -0.243062
vt 0.563704 -0.235016
vt 0.561422 -0.223335
vt 0.501169 -0.244978
vt 0.581750 -0.223723
vt 0.501169 -0.271280
vt 0.501169 -0.213376
vt 0.518693 -0.271562
vt 0.518956 -0.244838
vt 0.567642 -0.260949
vt 0.588439 -0.245949
vt 0.518023 -0.304809
vt 0.576241 -0.294862
vt 0.544001 -0.302021
vt 0.617285 -0.316651
vt 0.585505 -0.330039
vt 0.501169 -0.389282
vt 0.501169 -0.433676
vt 0.501169 -0.338563
vt 0.517705 -0.338563
vt 0.519610 -0.433676
vt 0.518239 -0.389282
vt 0.549981 -0.336873
vt 0.629665 -0.261462
vt 0.600244 -0.431549
vt 0.559987 -0.432213
vt 0.606939 -0.227987
vt 0.643748 -0.431549
vt 0.637573 -0.382875
vt 0.556006 -0.388947
vt 0.595298 -0.387841
vt 0.652494 -0.298701
vt 0.681728 -0.256438
vt 0.682823 -0.431549
vt 0.676715 -0.375782
vt 0.724133 -0.431549
vt 0.715896 -0.367980
vt 0.644066 -0.232416
vt 0.601253 -0.200330
vt 0.619655 -0.212465
vt 0.621863 -0.185215
vt 0.653004 -0.196956
vt 0.410081 -0.195440
vt 0.423877 -0.212328
vt 0.408901 -0.210321
vt 0.414838 -0.201264
vt 0.460538 -0.270309
vt 0.400389 -0.280059
vt 0.484723 -0.203160
vt 0.444615 -0.201310
vt 0.464078 -0.213833
vt 0.463922 -0.203782
vt 0.443035 -0.211415
vt 0.420588 -0.223723
vt 0.484356 -0.229958
vt 0.440917 -0.223335
vt 0.438634 -0.235016
vt 0.463003 -0.229866
vt 0.461974 -0.243062
vt 0.434696 -0.260949
vt 0.413900 -0.245949
vt 0.484468 -0.213376
vt 0.483646 -0.271562
vt 0.483382 -0.244838
vt 0.426098 -0.294862
vt 0.484316 -0.304809
vt 0.458338 -0.302021
vt 0.385053 -0.316651
vt 0.416834 -0.330039
vt 0.484634 -0.338563
vt 0.452358 -0.336873
vt 0.482729 -0.433676
vt 0.484100 -0.389282
vt 0.442352 -0.432213
vt 0.402095 -0.431549
vt 0.407041 -0.387841
vt 0.395400 -0.227987
vt 0.364766 -0.382875
vt 0.358591 -0.431549
vt 0.446333 -0.388947
vt 0.372674 -0.261462
vt 0.320611 -0.256438
vt 0.349844 -0.298701
vt 0.286443 -0.367980
vt 0.278206 -0.431549
vt 0.358273 -0.232416
vt 0.325623 -0.375782
vt 0.319515 -0.431549
vt 0.382684 -0.212465
vt 0.380476 -0.185215
vt 0.401085 -0.200330
vt 0.349335 -0.196956
vt 0.592258 -0.195440
vt 0.578461 -0.212328
vt 0.593438 -0.210321
vt 0.587501 -0.201264
vt 0.541800 -0.270309
vt 0.601950 -0.280059
vt 0.501169 -0.203160
vt 0.557724 -0.201310
vt 0.517615 -0.203160
vt 0.559304 -0.211415
vt 0.538261 -0.213833
vt 0.517871 -0.213376
vt 0.517983 -0.229958
vt 0.501169 -0.304809
vt 0.501169 -0.271280
vt 0.538416 -0.203782
vt 0.539335 -0.229866
vt 0.540365 -0.243062
vt 0.563704 -0.235016
vt 0.581750 -0.223723
vt 0.501169 -0.244978
vt 0.561422 -0.223335
vt 0.501169 -0.213376
vt 0.518956 -0.244838
vt 0.518693 -0.271562
vt 0.501169 -0.229958
vt 0.588439 -0.245949
vt 0.567642 -0.260949
vt 0.518023 -0.304809
vt 0.576241 -0.294862
vt 0.544001 -0.302021
vt 0.585505 -0.330039
vt 0.617285 -0.316651
vt 0.501169 -0.433676
vt 0.501169 -0.389282
vt 0.501169 -0.338563
vt 0.637573 -0.382875
vt 0.517705 -0.338563
vt 0.518239 -0.389282
vt 0.519610 -0.433676
vt 0.549981 -0.336873
vt 0.606939 -0.227987
vt 0.629665 -0.261462
vt 0.595298 -0.387841
vt 0.600244 -0.431549
vt 0.559987 -0.432213
vt 0.556006 -0.388947
vt 0.652494 -0.298701
vt 0.643748 -0.431549
vt 0.681728 -0.256438
vt 0.676715 -0.375782
vt 0.724133 -0.431549
vt 0.715896 -0.367980
vt 0.682823 -0.431549
vt 0.601253 -0.200330
vt 0.653004 -0.196956
vt 0.619655 -0.212465
vt 0.621863 -0.185215
vt 0.644066 -0.232416
g studio.beardgoateewide.smd.mesh_0
f 9/9/9 11/11/11 7/7/7
f 70/70/70 67/67/67 61/61/61
f 62/62/62 61/61/61 67/67/67
f 62/62/62 63/63/63 61/61/61
f 62/62/62 65/65/65 63/63/63
f 58/58/58 63/63/63 65/65/65
f 65/65/65 74/74/74 58/58/58
f 57/57/57 58/58/58 74/74/74
f 57/57/57 74/74/74 8/8/8
f 13/13/13 8/8/8 74/74/74
f 8/8/8 13/13/13 11/11/11
f 10/10/10 11/11/11 13/13/13
f 10/10/10 7/7/7 11/11/11
f 10/10/10 16/16/16 7/7/7
f 12/12/12 7/7/7 16/16/16
f 12/12/12 16/16/16 14/14/14
f 12/12/12 14/14/14 2/2/2
f 17/17/17 2/2/2 14/14/14
f 17/17/17 3/3/3 2/2/2
f 62/62/62 67/67/67 65/65/65
f 10/10/10 13/13/13 16/16/16
f 17/17/17 14/14/14 18/18/18
f 4/4/4 2/2/2 3/3/3
f 22/22/22 14/14/14 16/16/16
f 33/33/33 50/50/50 3/3/3
f 49/49/49 3/3/3 50/50/50
f 3/3/3 49/49/49 4/4/4
f 1/1/1 4/4/4 49/49/49
f 50/50/50 46/46/46 49/49/49
f 46/46/46 50/50/50 47/47/47
f 64/64/64 65/65/65 67/67/67
f 64/64/64 60/60/60 65/65/65
f 74/74/74 65/65/65 60/60/60
f 74/74/74 60/60/60 13/13/13
f 15/15/15 13/13/13 60/60/60
f 15/15/15 16/16/16 13/13/13
f 15/15/15 20/20/20 16/16/16
f 22/22/22 16/16/16 20/20/20
f 22/22/22 20/20/20 5/5/5
f 22/22/22 5/5/5 14/14/14
f 19/19/19 14/14/14 5/5/5
f 19/19/19 18/18/18 14/14/14
f 19/19/19 23/23/23 18/18/18
f 6/6/6 18/18/18 23/23/23
f 6/6/6 23/23/23 26/26/26
f 6/6/6 26/26/26 34/34/34
f 6/6/6 34/34/34 18/18/18
f 15/15/15 60/60/60 20/20/20
f 71/71/71 20/20/20 60/60/60
f 19/19/19 5/5/5 23/23/23
f 25/25/25 23/23/23 5/5/5
f 25/25/25 5/5/5 24/24/24
f 21/21/21 24/24/24 5/5/5
f 21/21/21 5/5/5 20/20/20
f 21/21/21 20/20/20 73/73/73
f 71/71/71 73/73/73 20/20/20
f 71/71/71 76/76/76 73/73/73
f 71/71/71 60/60/60 76/76/76
f 64/64/64 76/76/76 60/60/60
f 21/21/21 73/73/73 24/24/24
f 75/75/75 73/73/73 76/76/76
f 31/31/31 30/30/30 24/24/24
f 75/75/75 76/76/76 55/55/55
f 75/75/75 55/55/55 79/79/79
f 75/75/75 79/79/79 73/73/73
f 66/66/66 73/73/73 79/79/79
f 66/66/66 24/24/24 73/73/73
f 66/66/66 86/86/86 24/24/24
f 31/31/31 24/24/24 86/86/86
f 86/86/86 84/84/84 31/31/31
f 32/32/32 31/31/31 84/84/84
f 31/31/31 32/32/32 30/30/30
f 36/36/36 30/30/30 32/32/32
f 36/36/36 40/40/40 30/30/30
f 27/27/27 30/30/30 40/40/40
f 27/27/27 40/40/40 26/26/26
f 27/27/27 26/26/26 23/23/23
f 27/27/27 23/23/23 30/30/30
f 25/25/25 30/30/30 23/23/23
f 25/25/25 24/24/24 30/30/30
f 86/86/86 87/87/87 84/84/84
f 87/87/87 86/86/86 79/79/79
f 66/66/66 79/79/79 86/86/86
f 28/28/28 26/26/26 40/40/40
f 32/32/32 29/29/29 36/36/36
f 29/29/29 32/32/32 85/85/85
f 84/84/84 85/85/85 32/32/32
f 84/84/84 89/89/89 85/85/85
f 89/89/89 84/84/84 87/87/87
f 87/87/87 90/90/90 89/89/89
f 87/87/87 79/79/79 90/90/90
f 81/81/81 90/90/90 79/79/79
f 81/81/81 79/79/79 55/55/55
f 81/81/81 55/55/55 80/80/80
f 77/77/77 80/80/80 55/55/55
f 77/77/77 78/78/78 80/80/80
f 77/77/77 69/69/69 78/78/78
f 77/77/77 55/55/55 69/69/69
f 68/68/68 69/69/69 55/55/55
f 68/68/68 55/55/55 76/76/76
f 68/68/68 76/76/76 67/67/67
f 64/64/64 67/67/67 76/76/76
f 68/68/68 67/67/67 69/69/69
f 88/88/88 85/85/85 89/89/89
f 89/89/89 97/97/97 88/88/88
f 97/97/97 89/89/89 90/90/90
f 97/97/97 90/90/90 98/98/98
f 83/83/83 98/98/98 90/90/90
f 92/92/92 98/98/98 95/95/95
f 92/92/92 93/93/93 98/98/98
f 97/97/97 98/98/98 93/93/93
f 93/93/93 88/88/88 97/97/97
f 94/94/94 91/91/91 78/78/78
f 56/56/56 78/78/78 91/91/91
f 56/56/56 80/80/80 78/78/78
f 56/56/56 82/82/82 80/80/80
f 56/56/56 91/91/91 82/82/82
f 99/99/99 82/82/82 91/91/91
f 99/99/99 91/91/91 100/100/100
f 99/99/99 100/100/100 102/102/102
f 104/104/104 102/102/102 100/100/100
f 104/104/104 103/103/103 102/102/102
f 101/101/101 102/102/102 103/103/103
f 101/101/101 95/95/95 102/102/102
f 96/96/96 102/102/102 95/95/95
f 96/96/96 95/95/95 98/98/98
f 96/96/96 98/98/98 82/82/82
f 83/83/83 82/82/82 98/98/98
f 83/83/83 80/80/80 82/82/82
f 83/83/83 90/90/90 80/80/80
f 81/81/81 80/80/80 90/90/90
f 96/96/96 82/82/82 102/102/102
f 99/99/99 102/102/102 82/82/82
f 72/72/72 78/78/78 69/69/69
f 72/72/72 54/54/54 78/78/78
f 94/94/94 78/78/78 54/54/54
f 94/94/94 54/54/54 107/107/107
f 94/94/94 107/107/107 91/91/91
f 105/105/105 91/91/91 107/107/107
f 105/105/105 100/100/100 91/91/91
f 100/100/100 105/105/105 109/109/109
f 105/105/105 107/107/107 109/109/109
f 108/108/108 109/109/109 107/107/107
f 108/108/108 107/107/107 106/106/106
f 106/106/106 107/107/107 54/54/54
f 54/54/54 52/52/52 106/106/106
f 52/52/52 54/54/54 53/53/53
f 72/72/72 53/53/53 54/54/54
f 72/72/72 69/69/69 53/53/53
f 70/70/70 53/53/53 69/69/69
f 70/70/70 69/69/69 67/67/67
f 51/51/51 106/106/106 52/52/52
f 173/173/173 133/133/133 195/195/195
f 137/137/137 195/195/195 133/133/133
f 121/121/121 128/128/128 124/124/124
f 127/127/127 124/124/124 128/128/128
f 127/127/127 128/128/128 132/132/132
f 127/127/127 132/132/132 114/114/114
f 134/134/134 114/114/114 132/132/132
f 134/134/134 133/133/133 114/114/114
f 134/134/134 138/138/138 133/133/133
f 137/137/137 133/133/133 138/138/138
f 137/137/137 138/138/138 140/140/140
f 140/140/140 194/194/194 137/137/137
f 195/195/195 137/137/137 194/194/194
f 195/195/195 194/194/194 197/197/197
f 197/197/197 188/188/188 195/195/195
f 173/173/173 195/195/195 188/188/188
f 173/173/173 188/188/188 174/174/174
f 173/173/173 174/174/174 133/133/133
f 130/130/130 133/133/133 174/174/174
f 130/130/130 114/114/114 133/133/133
f 127/127/127 114/114/114 124/124/124
f 126/126/126 124/124/124 114/114/114
f 134/134/134 132/132/132 138/138/138
f 136/136/136 138/138/138 132/132/132
f 130/130/130 174/174/174 131/131/131
f 180/180/180 131/131/131 174/174/174
f 130/130/130 131/131/131 114/114/114
f 126/126/126 114/114/114 131/131/131
f 126/126/126 131/131/131 125/125/125
f 126/126/126 125/125/125 124/124/124
f 123/123/123 124/124/124 125/125/125
f 123/123/123 111/111/111 124/124/124
f 123/123/123 125/125/125 120/120/120
f 118/118/118 120/120/120 125/125/125
f 117/117/117 120/120/120 119/119/119
f 118/118/118 119/119/119 120/120/120
f 118/118/118 129/129/129 119/119/119
f 118/118/118 125/125/125 129/129/129
f 122/122/122 129/129/129 125/125/125
f 122/122/122 125/125/125 131/131/131
f 122/122/122 131/131/131 185/185/185
f 180/180/180 185/185/185 131/131/131
f 180/180/180 183/183/183 185/185/185
f 180/180/180 174/174/174 183/183/183
f 184/184/184 183/183/183 174/174/174
f 184/184/184 174/174/174 188/188/188
f 184/184/184 188/188/188 164/164/164
f 184/184/184 164/164/164 183/183/183
f 177/177/177 183/183/183 164/164/164
f 177/177/177 176/176/176 183/183/183
f 177/177/177 178/178/178 176/176/176
f 181/181/181 176/176/176 178/178/178
f 181/181/181 178/178/178 161/161/161
f 177/177/177 164/164/164 178/178/178
f 187/187/187 178/178/178 164/164/164
f 172/172/172 171/171/171 185/185/185
f 182/182/182 185/185/185 171/171/171
f 182/182/182 129/129/129 185/185/185
f 122/122/122 185/185/185 129/129/129
f 172/172/172 185/185/185 183/183/183
f 172/172/172 183/183/183 176/176/176
f 172/172/172 176/176/176 171/171/171
f 170/170/170 171/171/171 176/176/176
f 170/170/170 175/175/175 171/171/171
f 170/170/170 169/169/169 175/175/175
f 167/167/167 175/175/175 169/169/169
f 170/170/170 176/176/176 169/169/169
f 181/181/181 169/169/169 176/176/176
f 168/168/168 171/171/171 175/175/175
f 171/171/171 168/168/168 182/182/182
f 166/166/166 182/182/182 168/168/168
f 166/166/166 116/116/116 182/182/182
f 129/129/129 182/182/182 116/116/116
f 116/116/116 119/119/119 129/129/129
f 179/179/179 162/162/162 161/161/161
f 179/179/179 161/161/161 178/178/178
f 179/179/179 178/178/178 186/186/186
f 187/187/187 186/186/186 178/178/178
f 187/187/187 189/189/189 186/186/186
f 187/187/187 164/164/164 189/189/189
f 190/190/190 189/189/189 164/164/164
f 190/190/190 164/164/164 188/188/188
f 190/190/190 188/188/188 200/200/200
f 197/197/197 200/200/200 188/188/188
f 197/197/197 198/198/198 200/200/200
f 198/198/198 197/197/197 194/194/194
f 194/194/194 193/193/193 198/198/198
f 194/194/194 140/140/140 193/193/193
f 139/139/139 193/193/193 140/140/140
f 140/140/140 147/147/147 139/139/139
f 141/141/141 139/139/139 147/147/147
f 147/147/147 143/143/143 141/141/141
f 190/190/190 200/200/200 189/189/189
f 191/191/191 189/189/189 200/200/200
f 199/199/199 198/198/198 193/193/193
f 198/198/198 199/199/199 206/206/206
f 206/206/206 200/200/200 198/198/198
f 206/206/206 203/203/203 200/200/200
f 191/191/191 200/200/200 203/203/203
f 191/191/191 203/203/203 192/192/192
f 191/191/191 192/192/192 189/189/189
f 165/165/165 189/189/189 192/192/192
f 165/165/165 186/186/186 189/189/189
f 165/165/165 202/202/202 186/186/186
f 201/201/201 186/186/186 202/202/202
f 201/201/201 202/202/202 216/216/216
f 201/201/201 216/216/216 162/162/162
f 201/201/201 162/162/162 186/186/186
f 179/179/179 186/186/186 162/162/162
f 207/207/207 202/202/202 192/192/192
f 165/165/165 192/192/192 202/202/202
f 205/205/205 206/206/206 199/199/199
f 206/206/206 205/205/205 203/203/203
f 204/204/204 203/203/203 205/205/205
f 204/204/204 208/208/208 203/203/203
f 196/196/196 203/203/203 208/208/208
f 196/196/196 192/192/192 203/203/203
f 196/196/196 210/210/210 192/192/192
f 207/207/207 192/192/192 210/210/210
f 207/207/207 210/210/210 209/209/209
f 207/207/207 209/209/209 202/202/202
f 218/218/218 202/202/202 209/209/209
f 218/218/218 216/216/216 202/202/202
f 218/218/218 215/215/215 216/216/216
f 217/217/217 216/216/216 215/215/215
f 216/216/216 217/217/217 214/214/214
f 214/214/214 162/162/162 216/216/216
f 162/162/162 214/214/214 163/163/163
f 163/163/163 161/161/161 162/162/162
f 218/218/218 209/209/209 215/215/215
f 160/160/160 163/163/163 214/214/214
f 212/212/212 209/209/209 210/210/210
f 212/212/212 210/210/210 211/211/211
f 213/213/213 211/211/211 210/210/210
f 213/213/213 210/210/210 208/208/208
f 196/196/196 208/208/208 210/210/210
f 155/155/155 146/146/146 154/154/154
f 155/155/155 154/154/154 152/152/152
f 151/151/151 152/152/152 154/154/154
f 151/151/151 154/154/154 149/149/149
f 150/150/150 149/149/149 154/154/154
f 142/142/142 141/141/141 143/143/143
f 142/142/142 143/143/143 146/146/146
f 145/145/145 146/146/146 143/143/143
f 145/145/145 154/154/154 146/146/146
f 145/145/145 135/135/135 154/154/154
f 150/150/150 154/154/154 135/135/135
f 150/150/150 135/135/135 148/148/148
f 150/150/150 148/148/148 149/149/149
f 153/153/153 149/149/149 148/148/148
f 149/149/149 153/153/153 159/159/159
f 153/153/153 156/156/156 159/159/159
f 157/157/157 159/159/159 156/156/156
f 157/157/157 156/156/156 158/158/158
f 158/158/158 156/156/156 112/112/112
f 112/112/112 113/113/113 158/158/158
f 113/113/113 112/112/112 111/111/111
f 121/121/121 111/111/111 112/112/112
f 121/121/121 124/124/124 111/111/111
f 145/145/145 143/143/143 135/135/135
f 153/153/153 148/148/148 156/156/156
f 110/110/110 158/158/158 113/113/113
f 115/115/115 148/148/148 135/135/135
f 147/147/147 140/140/140 138/138/138
f 147/147/147 138/138/138 143/143/143
f 136/136/136 143/143/143 138/138/138
f 136/136/136 135/135/135 143/143/143
f 136/136/136 132/132/132 135/135/135
f 115/115/115 135/135/135 132/132/132
f 115/115/115 132/132/132 128/128/128
f 115/115/115 128/128/128 148/148/148
f 144/144/144 148/148/148 128/128/128
f 144/144/144 156/156/156 148/148/148
f 144/144/144 112/112/112 156/156/156
f 144/144/144 128/128/128 112/112/112
f 121/121/121 112/112/112 128/128/128
f 59/59/59 61/61/61 63/63/63
f 17/17/17 18/18/18 3/3/3
f 33/33/33 3/3/3 18/18/18
f 33/33/33 18/18/18 34/34/34
f 33/33/33 34/34/34 50/50/50
f 48/48/48 50/50/50 34/34/34
f 48/48/48 47/47/47 50/50/50
f 48/48/48 41/41/41 47/47/47
f 48/48/48 34/34/34 41/41/41
f 37/37/37 41/41/41 34/34/34
f 37/37/37 34/34/34 26/26/26
f 37/37/37 26/26/26 44/44/44
f 28/28/28 44/44/44 26/26/26
f 28/28/28 35/35/35 44/44/44
f 28/28/28 40/40/40 35/35/35
f 38/38/38 35/35/35 40/40/40
f 38/38/38 40/40/40 39/39/39
f 36/36/36 39/39/39 40/40/40
f 39/39/39 36/36/36 29/29/29
f 42/42/42 44/44/44 35/35/35
f 42/42/42 45/45/45 44/44/44
f 43/43/43 44/44/44 45/45/45
f 43/43/43 41/41/41 44/44/44
f 37/37/37 44/44/44 41/41/41
