# OBJ File Exported By Crafty (c) 2006 Ryan Gregg
# http://nemesis.thewavelength.net/

mtllib beardsoulpatch.mtl

v -0.651357 4.906948 0.077135
v -0.284525 5.041788 0.017486
v -0.002067 5.102970 0.006618
v 0.288686 5.043259 0.019539
v 0.655356 4.908908 0.080088
v -0.294653 5.090771 0.471843
v -0.606112 4.958129 0.510140
v -0.261872 5.335701 1.389862
v -0.588184 5.219028 1.362128
v -0.559007 5.187115 1.210633
v -0.270826 5.158451 0.828636
v -0.561148 5.036686 0.836286
v -0.554482 5.096594 1.025623
v -0.269877 5.198483 1.038857
v -0.263818 5.294822 1.234107
v 0.000681 5.137118 0.464511
v 0.607959 4.954311 0.508588
v 0.295502 5.084303 0.471738
v 0.004039 5.342947 1.390213
v 0.563291 5.186417 1.211085
v 0.000537 5.217765 1.045193
v 0.270197 5.157316 0.834478
v 0.572946 5.036849 0.839532
v 0.560055 5.101106 1.033178
v -0.001392 5.197934 0.825896
v 0.000220 5.307220 1.239476
v 0.247289 5.294230 1.232826
v 0.247464 5.194639 1.037758
v 0.244282 5.335830 1.389456
v 0.589982 5.219325 1.362046
v -0.651357 4.906948 0.077135
v -0.284525 5.041788 0.017486
v -0.002067 5.102970 0.006618
v 0.288686 5.043259 0.019539
v 0.655356 4.908908 0.080088
v -0.606112 4.958129 0.510140
v -0.294653 5.090771 0.471843
v -0.559007 5.187115 1.210633
v -0.588184 5.219028 1.362128
v -0.261872 5.335701 1.389862
v -0.270826 5.158451 0.828636
v -0.269877 5.198483 1.038857
v -0.561148 5.036686 0.836286
v -0.554482 5.096594 1.025623
v -0.263818 5.294822 1.234107
v 0.295502 5.084303 0.471738
v 0.000681 5.137118 0.464511
v 0.607959 4.954311 0.508588
v 0.004039 5.342947 1.390213
v 0.244282 5.335830 1.389456
v -0.001392 5.197934 0.825896
v 0.000537 5.217765 1.045193
v 0.270197 5.157316 0.834478
v 0.572946 5.036849 0.839532
v 0.560055 5.101106 1.033178
v 0.247464 5.194639 1.037758
v 0.247289 5.294230 1.232826
v 0.563291 5.186417 1.211085
v 0.000220 5.307220 1.239476
v 0.589982 5.219325 1.362046
vn 0.354541 -0.932176 0.073137
vn 0.290882 -0.951579 0.099427
vn -0.004228 -0.996223 0.086726
vn -0.271274 -0.958726 0.085170
vn -0.369521 -0.926170 0.075252
vn 0.290741 -0.948158 0.128321
vn 0.387239 -0.913930 0.121567
vn 0.164948 -0.955593 0.244201
vn 0.312362 -0.916854 0.248614
vn 0.297175 -0.889890 0.346096
vn 0.246984 -0.953741 0.171400
vn 0.382748 -0.899289 0.211622
vn 0.327159 -0.889279 0.319608
vn 0.188342 -0.930764 0.313379
vn 0.171433 -0.925855 0.336755
vn -0.012337 -0.991772 0.127422
vn -0.386185 -0.915797 0.110352
vn -0.286492 -0.949953 0.124547
vn -0.001346 -0.973035 0.230656
vn -0.282253 -0.896276 0.342086
vn -0.005805 -0.957579 0.288113
vn -0.244119 -0.955036 0.168265
vn -0.363390 -0.903753 0.226227
vn -0.302240 -0.897751 0.320459
vn -0.002122 -0.991755 0.128134
vn -0.001072 -0.944660 0.328049
vn -0.164826 -0.924989 0.342386
vn -0.173101 -0.935111 0.309197
vn -0.158327 -0.956285 0.245871
vn -0.295635 -0.922148 0.249486
vn -0.354541 0.932176 -0.073137
vn -0.290882 0.951579 -0.099427
vn 0.004228 0.996223 -0.086726
vn 0.271274 0.958726 -0.085170
vn 0.369521 0.926170 -0.075252
vn -0.387239 0.913930 -0.121567
vn -0.290741 0.948158 -0.128321
vn -0.297175 0.889890 -0.346096
vn -0.312362 0.916854 -0.248614
vn -0.164948 0.955593 -0.244201
vn -0.246984 0.953740 -0.171400
vn -0.188342 0.930764 -0.313379
vn -0.382748 0.899289 -0.211622
vn -0.327159 0.889279 -0.319608
vn -0.171433 0.925855 -0.336755
vn 0.286492 0.949953 -0.124547
vn 0.012337 0.991772 -0.127422
vn 0.386185 0.915797 -0.110352
vn 0.001346 0.973035 -0.230656
vn 0.158327 0.956285 -0.245871
vn 0.002122 0.991755 -0.128134
vn 0.005805 0.957579 -0.288113
vn 0.244119 0.955036 -0.168265
vn 0.363390 0.903753 -0.226227
vn 0.302240 0.897751 -0.320459
vn 0.173101 0.935111 -0.309197
vn 0.164826 0.924989 -0.342386
vn 0.282253 0.896276 -0.342086
vn 0.001072 0.944660 -0.328049
vn 0.295635 0.922148 -0.249486
vt 0.975528 -0.287693
vt 0.978548 -0.313777
vt 0.979394 -0.332841
vt 0.978548 -0.352188
vt 0.975528 -0.378271
vt 0.946812 -0.312694
vt 0.945996 -0.289753
vt 0.885926 -0.315321
vt 0.888308 -0.293518
vt 0.897918 -0.294893
vt 0.925199 -0.314871
vt 0.922690 -0.294297
vt 0.909833 -0.295192
vt 0.909090 -0.315235
vt 0.895012 -0.315114
vt 0.946083 -0.332812
vt 0.946190 -0.375988
vt 0.946555 -0.353074
vt 0.886261 -0.333006
vt 0.898388 -0.370763
vt 0.909989 -0.332923
vt 0.925074 -0.350851
vt 0.923080 -0.372253
vt 0.909221 -0.371471
vt 0.925136 -0.332866
vt 0.894902 -0.332835
vt 0.895641 -0.349535
vt 0.909115 -0.349200
vt 0.886631 -0.349562
vt 0.887817 -0.372943
vt 0.975528 -0.287693
vt 0.978548 -0.313777
vt 0.979394 -0.332841
vt 0.978548 -0.352188
vt 0.975528 -0.378271
vt 0.945996 -0.289753
vt 0.946812 -0.312694
vt 0.897918 -0.294893
vt 0.888308 -0.293518
vt 0.885926 -0.315321
vt 0.925199 -0.314871
vt 0.909090 -0.315235
vt 0.922690 -0.294297
vt 0.909833 -0.295192
vt 0.895012 -0.315114
vt 0.946555 -0.353074
vt 0.946083 -0.332812
vt 0.946190 -0.375988
vt 0.886261 -0.333006
vt 0.886631 -0.349562
vt 0.925136 -0.332866
vt 0.909989 -0.332923
vt 0.925074 -0.350851
vt 0.923080 -0.372253
vt 0.909221 -0.371471
vt 0.909115 -0.349200
vt 0.895641 -0.349535
vt 0.898388 -0.370763
vt 0.894902 -0.332835
vt 0.887817 -0.372943
g studio.beardsoulpatch.smd.mesh_0
f 31/31/31 36/36/36 32/32/32
f 43/43/43 44/44/44 41/41/41
f 43/43/43 41/41/41 36/36/36
f 37/37/37 36/36/36 41/41/41
f 37/37/37 32/32/32 36/36/36
f 32/32/32 37/37/37 33/33/33
f 47/47/47 33/33/33 37/37/37
f 33/33/33 47/47/47 34/34/34
f 46/46/46 34/34/34 47/47/47
f 34/34/34 46/46/46 35/35/35
f 48/48/48 35/35/35 46/46/46
f 46/46/46 53/53/53 48/48/48
f 54/54/54 48/48/48 53/53/53
f 54/54/54 53/53/53 55/55/55
f 56/56/56 55/55/55 53/53/53
f 56/56/56 57/57/57 55/55/55
f 56/56/56 52/52/52 57/57/57
f 59/59/59 57/57/57 52/52/52
f 59/59/59 52/52/52 45/45/45
f 56/56/56 53/53/53 52/52/52
f 51/51/51 47/47/47 41/41/41
f 37/37/37 41/41/41 47/47/47
f 42/42/42 45/45/45 52/52/52
f 45/45/45 40/40/40 59/59/59
f 40/40/40 45/45/45 39/39/39
f 38/38/38 39/39/39 45/45/45
f 38/38/38 45/45/45 44/44/44
f 42/42/42 44/44/44 45/45/45
f 42/42/42 41/41/41 44/44/44
f 42/42/42 52/52/52 41/41/41
f 51/51/51 41/41/41 52/52/52
f 51/51/51 52/52/52 53/53/53
f 51/51/51 53/53/53 47/47/47
f 46/46/46 47/47/47 53/53/53
f 49/49/49 59/59/59 40/40/40
f 49/49/49 50/50/50 59/59/59
f 57/57/57 59/59/59 50/50/50
f 50/50/50 60/60/60 57/57/57
f 58/58/58 57/57/57 60/60/60
f 58/58/58 55/55/55 57/57/57
f 3/3/3 4/4/4 16/16/16
f 1/1/1 2/2/2 7/7/7
f 6/6/6 7/7/7 2/2/2
f 2/2/2 3/3/3 6/6/6
f 16/16/16 6/6/6 3/3/3
f 6/6/6 16/16/16 11/11/11
f 25/25/25 11/11/11 16/16/16
f 12/12/12 11/11/11 13/13/13
f 12/12/12 7/7/7 11/11/11
f 6/6/6 11/11/11 7/7/7
f 20/20/20 27/27/27 24/24/24
f 20/20/20 30/30/30 27/27/27
f 29/29/29 27/27/27 30/30/30
f 27/27/27 29/29/29 26/26/26
f 19/19/19 26/26/26 29/29/29
f 19/19/19 8/8/8 26/26/26
f 15/15/15 26/26/26 8/8/8
f 8/8/8 9/9/9 15/15/15
f 10/10/10 15/15/15 9/9/9
f 10/10/10 13/13/13 15/15/15
f 14/14/14 15/15/15 13/13/13
f 14/14/14 13/13/13 11/11/11
f 14/14/14 11/11/11 21/21/21
f 25/25/25 21/21/21 11/11/11
f 25/25/25 22/22/22 21/21/21
f 25/25/25 16/16/16 22/22/22
f 18/18/18 22/22/22 16/16/16
f 18/18/18 16/16/16 4/4/4
f 4/4/4 5/5/5 18/18/18
f 17/17/17 18/18/18 5/5/5
f 18/18/18 17/17/17 22/22/22
f 23/23/23 22/22/22 17/17/17
f 23/23/23 24/24/24 22/22/22
f 28/28/28 22/22/22 24/24/24
f 28/28/28 24/24/24 27/27/27
f 28/28/28 27/27/27 21/21/21
f 26/26/26 21/21/21 27/27/27
f 26/26/26 15/15/15 21/21/21
f 14/14/14 21/21/21 15/15/15
f 28/28/28 21/21/21 22/22/22
