# OBJ File Exported By Crafty (c) 2006 Ryan Gregg
# http://nemesis.thewavelength.net/

mtllib beardchopper.mtl

v 2.234509 4.146711 2.454808
v 2.825984 1.073599 1.175082
v 2.901787 2.708656 1.506431
v 2.935801 1.900382 1.296816
v 2.608443 3.508338 1.986540
v 2.436033 3.856191 0.461351
v 2.701971 0.919885 0.874600
v 2.329231 2.863029 -0.493217
v 2.056831 1.811483 -1.067657
v 2.204645 2.253357 -0.869555
v 1.309574 4.898736 1.490468
v 1.548093 4.724135 1.407109
v 2.832388 2.560967 1.096660
v 2.742015 2.072160 0.043836
v 1.345381 4.894670 1.558710
v 1.273314 4.679866 1.393365
v 1.273314 4.679866 1.393365
v 1.148812 4.736743 1.257131
v 1.405010 4.641443 1.235343
v 1.216934 4.700636 1.100068
v 1.927162 3.288910 -0.813152
v 1.459797 4.453187 0.381210
v 1.305730 4.613273 0.789151
v 1.982369 4.079928 0.076591
v 1.574296 3.425947 -0.894406
v 1.739683 2.718725 -1.096068
v 1.312946 2.342154 -1.232638
v 1.449263 2.954258 -1.184611
v 2.697630 1.454786 0.695161
v 2.609851 0.695579 0.540199
v 2.014784 3.712280 -0.436158
v 1.817084 4.376642 0.537880
v 2.782294 2.354777 0.732963
v 2.541628 1.702164 -0.487216
v 2.581566 1.149751 0.151834
v 2.139139 4.143374 1.524784
v 1.559020 2.199541 -1.230045
v 2.618053 0.510347 0.176504
v 2.605540 3.377997 0.813474
v 2.371550 1.371256 -0.851953
v 2.540133 0.832564 -0.597161
v 1.591087 3.829293 -0.522776
v 1.588812 4.564532 0.979477
v 2.195079 4.119851 2.037719
v 2.107377 4.228740 1.050265
v 1.562127 4.191627 -0.019887
v 2.595869 3.457498 1.454038
v 2.473176 3.278972 -0.001232
v 2.761753 1.715642 0.948959
v 1.746450 4.528731 2.132962
v 1.230334 4.720991 2.643201
v 1.812385 4.573733 1.607677
v 1.730392 4.551004 2.540732
v 1.785975 4.583912 1.272433
v 1.367022 4.754309 2.220986
v 0.745517 5.104351 2.317816
v 0.349292 5.385247 2.370181
v 0.684204 5.371079 2.065047
v 1.548093 4.724135 1.407109
v 0.956699 5.171253 1.981382
v 1.573313 4.770090 1.679326
v 0.514320 5.264991 2.365605
v 0.452565 5.486474 2.101477
v 0.266127 5.600710 1.740346
v 0.505190 5.527144 1.897930
v 0.525765 5.534674 1.737560
v 1.194661 4.858140 2.250542
v 0.277768 5.360621 2.538121
v 1.015598 4.815910 2.655993
v 0.158943 5.434006 2.528906
v 0.211344 5.571201 2.113271
v 1.174615 5.071307 1.567096
v 1.360853 4.890685 1.796822
v 0.248670 5.607664 1.927441
v 0.149131 5.489536 2.639677
v 1.345381 4.894670 1.558710
v 0.269602 5.382926 2.658667
v 1.191984 5.056893 1.669932
v 0.193632 5.475026 2.352978
v 1.186346 5.030625 1.902932
v 0.995185 4.969722 2.285340
v 0.628834 5.062668 2.484884
v 1.011184 5.222727 1.765577
v 0.776849 5.398395 1.847150
v 0.384578 5.232370 2.628766
v 0.799466 4.963191 2.684421
v 0.831800 4.931723 2.570046
v 0.419386 5.235447 2.521766
v 0.607858 5.072304 2.557083
v 1.023665 5.211711 1.625499
v 0.769527 5.389766 1.701580
v -2.904835 2.706051 1.508606
v -2.825780 1.072487 1.174658
v -2.611517 3.504106 1.985540
v -2.229871 4.152080 2.451184
v -2.938368 1.896858 1.300056
v -2.431883 3.859739 0.458076
v -2.203848 2.253410 -0.869256
v -2.702029 0.919781 0.874960
v -2.329215 2.863101 -0.493197
v -2.055634 1.811386 -1.066774
v -1.310156 4.900557 1.504116
v -2.740736 2.073926 0.042018
v -2.832240 2.559008 1.095638
v -1.172960 4.756712 1.264669
v -1.284939 4.687498 1.390128
v -1.406086 4.639651 1.234507
v -1.217885 4.696136 1.101690
v -1.301908 4.614934 0.788790
v -1.980669 4.086802 0.081012
v -1.459284 4.453774 0.382127
v -1.927353 3.289346 -0.812930
v -1.311602 2.342335 -1.234572
v -1.573600 3.426756 -0.894947
v -1.587147 4.563515 0.976282
v -1.449955 2.953829 -1.184648
v -2.107701 4.232150 1.058220
v -2.138921 4.144274 1.529768
v -2.195901 4.126292 2.035390
v -1.818440 4.379745 0.543713
v -2.603902 3.379147 0.811039
v -2.618325 0.510790 0.177771
v -2.762800 1.712227 0.949760
v -2.595423 3.458838 1.454083
v -2.781852 2.352692 0.730764
v -2.697433 1.454565 0.694658
v -2.609991 0.695710 0.541217
v -2.013119 3.714288 -0.436512
v -1.561221 4.193747 -0.018973
v -1.591182 3.829159 -0.522532
v -2.541295 1.702404 -0.486974
v -2.471472 3.282686 -0.005151
v -2.540095 0.832800 -0.596907
v -1.557440 2.199547 -1.231361
v -1.739332 2.718372 -1.097095
v -2.581321 1.149970 0.151754
v -2.371411 1.371127 -0.851393
v -1.743204 4.533884 2.126651
v -1.809612 4.576296 1.610523
v -1.724377 4.553673 2.536297
v -1.787362 4.583580 1.273986
v -1.230074 4.719112 2.649917
v -1.369502 4.752240 2.221338
v -0.741393 5.104104 2.322968
v -0.351302 5.385247 2.370181
v -1.548631 4.724884 1.407770
v -1.571490 4.769169 1.688356
v -0.962997 5.171253 1.981382
v -0.515072 5.265580 2.358814
v -0.680455 5.365923 2.067232
v -0.448490 5.486474 2.101477
v -0.002226 5.628464 1.756568
v -0.000575 5.542052 2.588234
v -0.261729 5.600710 1.750477
v -0.496168 5.520233 1.893449
v -1.178107 5.071046 1.567844
v -0.516041 5.524361 1.732260
v -0.266458 5.377984 2.652972
v -0.149298 5.486463 2.640038
v -1.197068 5.058877 1.670577
v -0.277181 5.356678 2.526911
v -1.194057 4.854708 2.253156
v -1.355923 4.895557 1.820422
v -0.262498 5.607664 1.927441
v -0.000614 5.643377 1.948933
v -0.160306 5.430960 2.525325
v -0.192500 5.475026 2.352978
v -0.004707 5.535289 2.332511
v -0.015217 5.611252 2.126848
v -0.001175 5.493933 2.501297
v -1.018072 4.812537 2.659638
v -1.345003 4.898881 1.575640
v -0.203293 5.564162 2.123235
v -1.184328 5.035797 1.909643
v -0.992034 4.970126 2.287852
v -0.773662 5.399760 1.842679
v -1.012933 5.223520 1.751290
v -0.801087 4.958543 2.687214
v -0.832394 4.926250 2.571146
v -0.384277 5.230296 2.628900
v -0.419288 5.234549 2.519343
v -0.627848 5.060764 2.493744
v -0.769177 5.389906 1.695015
v -1.026830 5.210107 1.614053
v -0.608936 5.069903 2.564487
v 2.234509 4.146711 2.454808
v 2.825984 1.073599 1.175082
v 2.901787 2.708656 1.506431
v 2.935801 1.900382 1.296816
v 2.608443 3.508338 1.986540
v 2.436033 3.856191 0.461351
v 2.701971 0.919885 0.874600
v 2.329231 2.863029 -0.493217
v 2.204645 2.253357 -0.869555
v 2.056831 1.811483 -1.067657
v 2.742015 2.072160 0.043836
v 2.832388 2.560967 1.096660
v 1.273314 4.679866 1.393365
v 1.345381 4.894670 1.558710
v 1.548093 4.724135 1.407109
v 1.148812 4.736743 1.257131
v 1.273314 4.679866 1.393365
v 1.405010 4.641443 1.235343
v 1.216934 4.700636 1.100068
v 1.459797 4.453187 0.381210
v 1.305730 4.613273 0.789151
v 1.982369 4.079928 0.076591
v 1.312946 2.342154 -1.232638
v 1.927162 3.288910 -0.813152
v 1.574296 3.425947 -0.894406
v 2.473176 3.278972 -0.001232
v 2.605540 3.377997 0.813474
v 2.782294 2.354777 0.732963
v 2.697630 1.454786 0.695161
v 2.609851 0.695579 0.540199
v 2.014784 3.712280 -0.436158
v 1.817084 4.376642 0.537880
v 2.595869 3.457498 1.454038
v 2.541628 1.702164 -0.487216
v 2.195079 4.119851 2.037719
v 2.581566 1.149751 0.151834
v 1.559020 2.199541 -1.230045
v 1.739683 2.718725 -1.096068
v 2.761753 1.715642 0.948959
v 2.371550 1.371256 -0.851953
v 1.449263 2.954258 -1.184611
v 2.139139 4.143374 1.524784
v 2.107377 4.228740 1.050265
v 2.618053 0.510347 0.176504
v 1.588812 4.564532 0.979477
v 2.540133 0.832564 -0.597161
v 1.591087 3.829293 -0.522776
v 1.562127 4.191627 -0.019887
v 1.812385 4.573733 1.607677
v 1.746450 4.528731 2.132962
v 1.730392 4.551004 2.540732
v 1.785975 4.583912 1.272433
v 1.230334 4.720991 2.643201
v 1.015598 4.815910 2.655993
v 1.367022 4.754309 2.220986
v 1.194661 4.858140 2.250542
v 1.548093 4.724135 1.407109
v 1.360769 4.890549 1.797735
v 1.345381 4.894670 1.558710
v 1.573313 4.770090 1.679326
v -2.229871 4.152080 2.451184
v -2.611517 3.504106 1.985540
v -2.825780 1.072487 1.174658
v -2.904835 2.706051 1.508606
v -2.938368 1.896858 1.300056
v -2.431883 3.859739 0.458076
v -2.203848 2.253410 -0.869256
v -2.702029 0.919781 0.874960
v -2.329215 2.863101 -0.493197
v -2.055634 1.811386 -1.066774
v -2.740736 2.073926 0.042018
v -2.832240 2.559008 1.095638
v -1.284939 4.687498 1.390128
v -1.172960 4.756712 1.264669
v -1.217885 4.696136 1.101690
v -1.406086 4.639651 1.234507
v -1.301908 4.614934 0.788790
v -1.459284 4.453774 0.382127
v -1.927353 3.289346 -0.812930
v -1.980669 4.086802 0.081012
v -1.311602 2.342335 -1.234572
v -1.449955 2.953829 -1.184648
v -1.739332 2.718372 -1.097095
v -1.573600 3.426756 -0.894947
v -2.471472 3.282686 -0.005151
v -2.581321 1.149970 0.151754
v -2.762800 1.712227 0.949760
v -2.781852 2.352692 0.730764
v -2.107701 4.232150 1.058220
v -2.609991 0.695710 0.541217
v -2.013119 3.714288 -0.436512
v -2.603902 3.379147 0.811039
v -2.138921 4.144274 1.529768
v -2.541295 1.702404 -0.486974
v -2.195901 4.126292 2.035390
v -1.591182 3.829159 -0.522532
v -1.557440 2.199547 -1.231361
v -2.595423 3.458838 1.454083
v -1.818440 4.379745 0.543713
v -2.371411 1.371127 -0.851393
v -2.540095 0.832800 -0.596907
v -1.561221 4.193747 -0.018973
v -1.587147 4.563515 0.976282
v -2.697433 1.454565 0.694658
v -2.618325 0.510790 0.177771
v -1.809612 4.576296 1.610523
v -1.230074 4.719112 2.649917
v -1.787362 4.583580 1.273986
v -1.743204 4.533884 2.126651
v -1.724377 4.553673 2.536297
v -1.548631 4.724884 1.407770
v -1.369502 4.752240 2.221338
v -1.345003 4.898881 1.575640
v -1.018072 4.812537 2.659638
v -1.571490 4.769169 1.688356
v -1.194057 4.854708 2.253156
v -1.357030 4.901076 1.815659
v 1.309574 4.898736 1.490468
v 1.174615 5.071307 1.567096
v 1.345381 4.894670 1.558710
v 1.360769 4.890549 1.797735
v 1.194661 4.858140 2.250542
v 1.015598 4.815910 2.655993
v 0.831800 4.931723 2.570046
v 1.186346 5.030625 1.902932
v -1.310156 4.900557 1.504116
v -1.178107 5.071046 1.567844
v -0.992034 4.970126 2.287852
v -1.194057 4.854708 2.253156
v -1.357030 4.901076 1.815659
v -1.345003 4.898881 1.575640
v -1.197068 5.058877 1.670577
v -1.184328 5.035797 1.909643
v -0.832394 4.926250 2.571146
v -1.018072 4.812537 2.659638
v 0.995185 4.969722 2.285340
v 0.745517 5.104351 2.317816
v 0.956699 5.171253 1.981382
v 1.186346 5.030625 1.902932
v 1.174615 5.071307 1.567096
v 1.191984 5.056893 1.669932
v 1.023665 5.211711 1.625499
v 1.011184 5.222727 1.765577
v 0.628834 5.062668 2.484884
v 0.799466 4.963191 2.684421
v 0.607858 5.072304 2.557083
v 0.831800 4.931723 2.570046
v -0.992034 4.970126 2.287852
v -0.741393 5.104104 2.322968
v -1.012933 5.223520 1.751290
v -0.962997 5.171253 1.981382
v -1.184328 5.035797 1.909643
v -1.026830 5.210107 1.614053
v -1.178107 5.071046 1.567844
v -1.197068 5.058877 1.670577
v -0.801087 4.958543 2.687214
v -0.627848 5.060764 2.493744
v -0.832394 4.926250 2.571146
v -0.608936 5.069903 2.564487
v 0.956699 5.171253 1.981382
v 0.514320 5.264991 2.365605
v 0.684204 5.371079 2.065047
v 0.745517 5.104351 2.317816
v 0.384578 5.232370 2.628766
v 0.419386 5.235447 2.521766
v 0.628834 5.062668 2.484884
v 0.607858 5.072304 2.557083
v 1.023665 5.211711 1.625499
v 1.011184 5.222727 1.765577
v 0.760479 5.400248 1.846058
v 0.769527 5.389766 1.701580
v -0.962997 5.171253 1.981382
v -0.680387 5.365722 2.068519
v -0.741393 5.104104 2.322968
v -0.384277 5.230296 2.628900
v -0.753862 5.401897 1.844092
v -0.608936 5.069903 2.564487
v -0.627848 5.060764 2.493744
v -0.419288 5.234549 2.519343
v -0.769177 5.389906 1.695015
v -1.026830 5.210107 1.614053
v -1.012933 5.223520 1.751290
v 0.384578 5.232370 2.628766
v 0.269602 5.382926 2.658667
v 0.277768 5.360621 2.538121
v 0.419386 5.235447 2.521766
v 0.349292 5.385247 2.370181
v 0.684204 5.371079 2.065047
v 0.514320 5.264991 2.365605
v 0.452565 5.486474 2.101477
v 0.760479 5.400248 1.846058
v 0.769527 5.389766 1.701580
v 0.505248 5.527153 1.898760
v 0.525765 5.534674 1.737560
v -0.384277 5.230296 2.628900
v -0.266458 5.377984 2.652972
v -0.277181 5.356678 2.526911
v -0.419288 5.234549 2.519343
v -0.515072 5.265580 2.358814
v -0.680387 5.365722 2.068519
v -0.448490 5.486474 2.101477
v -0.351302 5.385247 2.370181
v -0.769177 5.389906 1.695015
v -0.516041 5.524361 1.732260
v -0.496213 5.520262 1.894252
v -0.753862 5.401897 1.844092
v 0.193632 5.475026 2.352978
v 0.452565 5.486474 2.101477
v 0.349292 5.385247 2.370181
v 0.505248 5.527153 1.898760
v 0.243820 5.569559 2.112954
v 0.266127 5.600710 1.740346
v 0.525765 5.534674 1.737560
v 0.248670 5.607664 1.927441
v 0.277768 5.360621 2.538121
v 0.158943 5.434006 2.528906
v 0.149131 5.489536 2.639677
v 0.269602 5.382926 2.658667
v -0.192500 5.475026 2.352978
v -0.351302 5.385247 2.370181
v -0.226561 5.563700 2.117935
v -0.448490 5.486474 2.101477
v -0.261729 5.600710 1.750477
v -0.248631 5.607664 1.927441
v -0.496213 5.520262 1.894252
v -0.516041 5.524361 1.732260
v -0.149298 5.486463 2.640038
v -0.266458 5.377984 2.652972
v -0.160306 5.430960 2.525325
v -0.277181 5.356678 2.526911
v 0.266127 5.600710 1.740346
v 0.149131 5.489536 2.639677
v 0.158943 5.434006 2.528906
v -0.000380 5.493948 2.501292
v 0.248670 5.607664 1.927441
v 0.000307 5.542071 2.588215
v 0.243820 5.569559 2.112954
v 0.193632 5.475026 2.352978
v 0.158943 5.434006 2.528906
v -0.261729 5.600710 1.750477
v -0.009002 5.628444 1.757391
v -0.000380 5.493948 2.501292
v -0.160306 5.430960 2.525325
v -0.149298 5.486463 2.640038
v -0.006898 5.611868 2.124483
v -0.226561 5.563700 2.117935
v -0.248631 5.607664 1.927441
v -0.005593 5.643317 1.951730
v 0.000307 5.542071 2.588215
v -0.000380 5.493948 2.501292
v -0.005575 5.535281 2.332541
v -0.160306 5.430960 2.525325
v -0.192500 5.475026 2.352978
vn -0.696324 -0.709016 0.111486
vn -0.924315 0.041155 0.379405
vn -0.935211 -0.279151 0.217841
vn -0.916662 -0.001045 0.399662
vn -0.858432 -0.507399 0.075107
vn -0.833647 -0.520064 0.185918
vn -0.962969 0.055948 0.263745
vn -0.821884 -0.231146 0.520651
vn -0.656677 -0.167457 0.735346
vn -0.697300 -0.144708 0.702020
vn -0.674990 -0.667484 0.314410
vn 0.061085 -0.621617 0.780936
vn -0.966720 -0.145804 0.210225
vn -0.972164 -0.026494 0.232800
vn 0.061085 -0.621617 0.780936
vn 0.061085 -0.621617 0.780936
vn -0.168468 -0.980815 0.098087
vn -0.348193 -0.937404 0.005911
vn -0.190584 -0.957523 0.216396
vn -0.369762 -0.922543 0.110409
vn -0.574639 -0.383235 0.723133
vn -0.339021 -0.874985 0.345640
vn -0.307517 -0.932443 0.189692
vn -0.532079 -0.727850 0.432580
vn -0.359394 -0.512924 0.779580
vn -0.479736 -0.159675 0.862761
vn -0.049434 -0.067178 0.996516
vn -0.375434 -0.233431 0.896972
vn -0.984684 0.094679 0.146402
vn -0.993716 0.016516 0.110705
vn -0.594860 -0.582859 0.553549
vn -0.469420 -0.839433 0.273857
vn -0.990003 -0.053970 0.130311
vn -0.913819 -0.049701 0.403069
vn -0.992282 0.057535 0.109850
vn -0.808712 -0.588140 -0.008750
vn -0.346318 -0.109841 0.931665
vn -0.997582 -0.055303 0.042089
vn -0.946423 -0.315653 0.068168
vn -0.835805 -0.151936 0.527584
vn -0.984821 -0.034775 0.170053
vn -0.323962 -0.711291 0.623789
vn -0.257496 -0.945616 0.198762
vn -0.746259 -0.661467 0.074558
vn -0.770267 -0.636793 0.034386
vn -0.335061 -0.808732 0.483412
vn -0.889745 -0.451106 0.069702
vn -0.885380 -0.301424 0.353900
vn -0.955567 0.057159 0.289178
vn -0.601061 -0.796436 -0.066450
vn -0.417585 -0.893441 -0.165489
vn -0.712997 -0.696389 -0.081715
vn -0.466965 -0.883113 0.045336
vn -0.521339 -0.835874 0.171815
vn -0.532993 -0.813502 -0.232666
vn -0.518348 -0.714105 -0.470499
vn -0.487484 -0.770996 -0.409785
vn -0.537832 -0.734289 -0.414195
vn -0.300684 -0.896492 0.325408
vn -0.594914 -0.689175 -0.413661
vn -0.589632 -0.804893 -0.066948
vn -0.541613 -0.676900 -0.498460
vn -0.394469 -0.842199 -0.367554
vn -0.180492 -0.983379 0.019710
vn -0.387264 -0.902952 -0.186292
vn -0.382251 -0.922786 -0.048478
vn -0.530721 -0.785036 -0.319457
vn -0.590717 -0.798883 -0.113308
vn -0.451564 -0.867534 -0.208507
vn -0.475107 -0.879619 0.023331
vn -0.261206 -0.915186 -0.306929
vn -0.698428 -0.714126 0.047149
vn -0.624415 -0.766814 -0.148666
vn -0.217837 -0.969795 -0.109748
vn -0.536992 -0.772232 0.339555
vn -0.630730 -0.764434 0.133490
vn -0.652371 -0.751421 0.098888
vn -0.694681 -0.718937 -0.023425
vn -0.352111 -0.877290 -0.326159
vn -0.639403 -0.721672 -0.265242
vn -0.489547 -0.785742 -0.378093
vn -0.544455 -0.772605 -0.326574
vn -0.629154 -0.766055 -0.131622
vn -0.564057 -0.811330 -0.153571
vn -0.732407 -0.630749 -0.256390
vn -0.542945 -0.836269 0.076586
vn -0.499358 -0.852644 -0.153754
vn -0.636583 -0.703549 -0.315882
vn -0.591709 -0.803559 -0.064606
vn -0.638019 -0.769999 0.005829
vn -0.544486 -0.836006 0.068044
vn 0.934128 -0.279434 0.222086
vn 0.924286 0.042364 0.379343
vn 0.860872 -0.503481 0.073526
vn 0.697485 -0.709448 0.100984
vn 0.916209 -0.001167 0.400699
vn 0.832818 -0.520507 0.188378
vn 0.697291 -0.143732 0.702230
vn 0.962825 0.056418 0.264169
vn 0.821545 -0.230494 0.521476
vn 0.656473 -0.166470 0.735753
vn 0.687519 -0.652007 0.319694
vn 0.971990 -0.027054 0.233459
vn 0.966003 -0.146502 0.213017
vn 0.438828 -0.894881 0.081354
vn 0.154850 -0.925135 0.346622
vn 0.219191 -0.946568 0.236570
vn 0.391470 -0.904331 0.170107
vn 0.304423 -0.934194 0.186034
vn 0.529503 -0.730034 0.432061
vn 0.336414 -0.875613 0.346593
vn 0.575476 -0.382750 0.722724
vn 0.053253 -0.069282 0.996175
vn 0.359682 -0.512413 0.779783
vn 0.256661 -0.946490 0.195656
vn 0.375522 -0.234039 0.896777
vn 0.771669 -0.635202 0.032339
vn 0.807838 -0.589370 -0.006425
vn 0.745974 -0.661955 0.073066
vn 0.468514 -0.840690 0.271541
vn 0.946350 -0.315660 0.069141
vn 0.997543 -0.056038 0.042047
vn 0.954832 0.057350 0.291561
vn 0.889410 -0.451379 0.072160
vn 0.989869 -0.054318 0.131185
vn 0.984352 0.094780 0.148555
vn 0.993691 0.016167 0.110984
vn 0.592946 -0.583465 0.554963
vn 0.331625 -0.809812 0.483972
vn 0.321140 -0.711855 0.624605
vn 0.913684 -0.049808 0.403362
vn 0.884689 -0.302484 0.354724
vn 0.984802 -0.035207 0.170077
vn 0.347565 -0.109463 0.931244
vn 0.480068 -0.159623 0.862587
vn 0.992307 0.056876 0.109960
vn 0.835349 -0.152576 0.528122
vn 0.598053 -0.798456 -0.069289
vn 0.710297 -0.699093 -0.082144
vn 0.462413 -0.885907 0.036643
vn 0.520626 -0.836705 0.169923
vn 0.413615 -0.895310 -0.165356
vn 0.527612 -0.817607 -0.230531
vn 0.514816 -0.716041 -0.471434
vn 0.485658 -0.767423 -0.418567
vn 0.256728 -0.878239 0.403470
vn 0.594823 -0.800484 -0.073554
vn 0.583419 -0.705305 -0.402700
vn 0.544832 -0.675615 -0.496691
vn 0.531317 -0.741819 -0.409154
vn 0.393771 -0.853497 -0.341302
vn -0.001445 -0.998183 0.060234
vn 0.003402 -0.890887 0.454212
vn 0.198662 -0.979278 0.039344
vn 0.395698 -0.902409 -0.170533
vn 0.694868 -0.715535 0.071889
vn 0.382936 -0.923301 -0.029582
vn 0.652954 -0.753098 0.080588
vn 0.547741 -0.772528 0.321218
vn 0.693693 -0.720081 -0.016518
vn 0.588372 -0.793266 -0.156675
vn 0.529061 -0.784200 -0.324230
vn 0.640041 -0.748868 -0.171881
vn 0.250710 -0.958890 -0.132948
vn 0.000235 -0.997367 -0.072517
vn 0.485935 -0.873991 0.002704
vn 0.354787 -0.877140 -0.323654
vn 0.011077 -0.946962 -0.321153
vn 0.037103 -0.964659 -0.260877
vn 0.007191 -0.994399 0.105446
vn 0.444437 -0.872971 -0.200993
vn 0.566778 -0.788629 0.238383
vn 0.276430 -0.909405 -0.310757
vn 0.632845 -0.724583 -0.272921
vn 0.491400 -0.778048 -0.391366
vn 0.547994 -0.821013 -0.160125
vn 0.620480 -0.775385 -0.117399
vn 0.544253 -0.834564 0.085393
vn 0.500730 -0.851890 -0.153468
vn 0.716856 -0.649197 -0.254286
vn 0.628440 -0.708738 -0.320552
vn 0.548979 -0.775364 -0.312142
vn 0.523797 -0.849286 0.065950
vn 0.630022 -0.776396 0.016775
vn 0.594886 -0.801761 -0.057355
vn 0.696324 0.709016 -0.111486
vn 0.924315 -0.041155 -0.379405
vn 0.935211 0.279150 -0.217841
vn 0.916662 0.001045 -0.399662
vn 0.858432 0.507399 -0.075107
vn 0.833647 0.520064 -0.185918
vn 0.962969 -0.055948 -0.263745
vn 0.821884 0.231146 -0.520651
vn 0.697300 0.144708 -0.702020
vn 0.656677 0.167457 -0.735346
vn 0.972164 0.026494 -0.232800
vn 0.966720 0.145804 -0.210225
vn -0.061085 0.621617 -0.780936
vn -0.061085 0.621617 -0.780936
vn -0.061085 0.621617 -0.780936
vn 0.348193 0.937404 -0.005911
vn 0.168467 0.980815 -0.098088
vn 0.190584 0.957523 -0.216396
vn 0.369762 0.922543 -0.110409
vn 0.339021 0.874985 -0.345640
vn 0.307517 0.932443 -0.189692
vn 0.532079 0.727850 -0.432580
vn 0.049434 0.067178 -0.996516
vn 0.574639 0.383235 -0.723133
vn 0.359394 0.512924 -0.779580
vn 0.885380 0.301424 -0.353900
vn 0.946423 0.315653 -0.068168
vn 0.990003 0.053970 -0.130311
vn 0.984684 -0.094679 -0.146402
vn 0.993716 -0.016516 -0.110705
vn 0.594860 0.582860 -0.553549
vn 0.469420 0.839433 -0.273857
vn 0.889745 0.451106 -0.069702
vn 0.913819 0.049701 -0.403069
vn 0.746259 0.661467 -0.074558
vn 0.992282 -0.057535 -0.109850
vn 0.346318 0.109841 -0.931665
vn 0.479736 0.159675 -0.862761
vn 0.955567 -0.057159 -0.289178
vn 0.835805 0.151936 -0.527584
vn 0.375434 0.233431 -0.896972
vn 0.808712 0.588140 0.008750
vn 0.770267 0.636793 -0.034386
vn 0.997582 0.055303 -0.042089
vn 0.257496 0.945616 -0.198762
vn 0.984821 0.034775 -0.170053
vn 0.323962 0.711291 -0.623789
vn 0.335061 0.808732 -0.483412
vn 0.712997 0.696389 0.081715
vn 0.601061 0.796436 0.066450
vn 0.466965 0.883113 -0.045336
vn 0.521339 0.835874 -0.171815
vn 0.417585 0.893441 0.165489
vn 0.442197 0.865681 0.234643
vn 0.532993 0.813502 0.232666
vn 0.535150 0.794487 0.287063
vn 0.300684 0.896492 -0.325408
vn 0.556948 0.812240 0.173421
vn 0.516952 0.850313 -0.098636
vn 0.589575 0.804935 0.066944
vn -0.697485 0.709448 -0.100984
vn -0.860872 0.503481 -0.073526
vn -0.924286 -0.042364 -0.379343
vn -0.934128 0.279434 -0.222086
vn -0.916209 0.001167 -0.400699
vn -0.832818 0.520507 -0.188378
vn -0.697291 0.143732 -0.702230
vn -0.962825 -0.056418 -0.264169
vn -0.821545 0.230494 -0.521476
vn -0.656473 0.166470 -0.735753
vn -0.971990 0.027054 -0.233459
vn -0.966003 0.146502 -0.213017
vn -0.154850 0.925135 -0.346622
vn -0.438828 0.894881 -0.081354
vn -0.391470 0.904331 -0.170107
vn -0.219191 0.946568 -0.236570
vn -0.304423 0.934194 -0.186034
vn -0.336414 0.875613 -0.346593
vn -0.575476 0.382750 -0.722724
vn -0.529503 0.730034 -0.432061
vn -0.053253 0.069282 -0.996175
vn -0.375522 0.234039 -0.896777
vn -0.480068 0.159623 -0.862587
vn -0.359682 0.512413 -0.779783
vn -0.884689 0.302484 -0.354724
vn -0.992307 -0.056876 -0.109960
vn -0.954832 -0.057350 -0.291561
vn -0.989869 0.054318 -0.131185
vn -0.771669 0.635201 -0.032339
vn -0.993691 -0.016167 -0.110984
vn -0.592946 0.583465 -0.554962
vn -0.946350 0.315660 -0.069141
vn -0.807838 0.589370 0.006425
vn -0.913684 0.049808 -0.403362
vn -0.745974 0.661955 -0.073066
vn -0.321140 0.711855 -0.624605
vn -0.347565 0.109463 -0.931244
vn -0.889410 0.451379 -0.072160
vn -0.468514 0.840690 -0.271541
vn -0.835349 0.152576 -0.528122
vn -0.984802 0.035207 -0.170077
vn -0.331625 0.809812 -0.483972
vn -0.256661 0.946490 -0.195656
vn -0.984352 -0.094780 -0.148555
vn -0.997543 0.056038 -0.042047
vn -0.710297 0.699093 0.082144
vn -0.413615 0.895310 0.165356
vn -0.520626 0.836705 -0.169923
vn -0.598053 0.798456 0.069289
vn -0.462413 0.885907 -0.036643
vn -0.256728 0.878239 -0.403470
vn -0.527612 0.817607 0.230531
vn -0.390599 0.862421 -0.321966
vn -0.437081 0.869289 0.230863
vn -0.597819 0.798356 0.072391
vn -0.532353 0.796694 0.286146
vn -0.595935 0.778395 0.197389
vn 0.674990 0.667484 -0.314410
vn 0.714860 0.694834 -0.078620
vn 0.705011 0.691728 -0.156432
vn 0.699665 0.704472 0.119116
vn 0.525539 0.774426 0.352240
vn 0.457033 0.868325 0.192697
vn 0.508310 0.852789 0.119880
vn 0.660498 0.708921 0.247332
vn -0.687519 0.652007 -0.319694
vn -0.716374 0.689673 -0.105644
vn -0.505595 0.765125 0.398695
vn -0.524176 0.769679 0.364464
vn -0.693041 0.708798 0.131528
vn -0.713110 0.681706 -0.163558
vn -0.700656 0.713497 -0.001957
vn -0.648164 0.714802 0.262567
vn -0.502475 0.856807 0.115763
vn -0.448735 0.874814 0.182585
vn 0.500803 0.775229 0.384988
vn 0.451914 0.791347 0.411757
vn 0.573701 0.695769 0.432173
vn 0.612803 0.736474 0.286492
vn 0.678592 0.734422 -0.011675
vn 0.700501 0.713559 0.011458
vn 0.677108 0.735883 -0.000966
vn 0.652842 0.742975 0.147597
vn 0.449926 0.858169 0.247210
vn 0.555310 0.828609 -0.070983
vn 0.531308 0.847137 0.008380
vn 0.489821 0.851456 0.187344
vn -0.476573 0.791007 0.383650
vn -0.455480 0.785037 0.419827
vn -0.644856 0.753012 0.130898
vn -0.568697 0.703412 0.426375
vn -0.602889 0.743561 0.289209
vn -0.666474 0.745417 -0.012910
vn -0.670349 0.741175 -0.035929
vn -0.678687 0.733755 0.031410
vn -0.549017 0.831650 -0.083297
vn -0.466248 0.850022 0.245103
vn -0.498250 0.845718 0.191072
vn -0.540703 0.841209 0.002641
vn 0.619303 0.680654 0.391375
vn 0.562138 0.661279 0.496700
vn 0.600477 0.663424 0.446426
vn 0.577948 0.626433 0.523028
vn 0.614143 0.757455 0.221562
vn 0.610563 0.723967 0.321068
vn 0.624685 0.672569 0.396762
vn 0.638397 0.761613 0.111331
vn 0.571002 0.820835 -0.013676
vn 0.599279 0.791732 0.118423
vn 0.606954 0.772457 0.186863
vn 0.572276 0.819787 -0.021219
vn -0.601242 0.706336 0.373628
vn -0.588922 0.675515 0.443678
vn -0.567956 0.639778 0.517793
vn -0.608007 0.761715 0.223868
vn -0.603387 0.771631 0.201270
vn -0.637805 0.763153 0.103933
vn -0.620660 0.690007 0.372385
vn -0.603766 0.729279 0.321898
vn -0.565567 0.824620 -0.011629
vn -0.567245 0.823227 -0.023014
vn -0.589862 0.800358 0.107194
vn 0.789979 0.549117 0.272771
vn 0.716964 0.696263 0.034370
vn 0.665406 0.739703 0.100370
vn 0.660912 0.683187 0.310564
vn 0.544836 0.704699 0.454482
vn 0.474538 0.802924 0.360730
vn 0.519042 0.693260 0.499986
vn 0.458882 0.797470 0.391751
vn 0.489970 0.864360 0.113187
vn 0.507403 0.861162 -0.030701
vn 0.466151 0.859619 0.209183
vn 0.474024 0.878276 0.062711
vn -0.773734 0.573319 0.269518
vn -0.706487 0.705939 0.050256
vn -0.649842 0.747665 0.136759
vn -0.651484 0.688359 0.318952
vn -0.555753 0.669518 0.492832
vn -0.472263 0.807606 0.353186
vn -0.469981 0.801888 0.368908
vn -0.543384 0.699686 0.463868
vn -0.466296 0.884324 -0.023228
vn -0.439940 0.896822 0.046505
vn -0.450267 0.873036 0.187264
vn -0.455636 0.882731 0.114809
vn 0.438651 0.827627 0.350171
vn 0.363069 0.863986 0.348869
vn 0.426523 0.825911 0.368713
vn 0.323499 0.934329 0.149590
vn 0.359552 0.870272 0.336673
vn 0.246336 0.969097 -0.013036
vn 0.283329 0.957955 0.045232
vn 0.294159 0.948378 0.118529
vn 0.514342 0.848474 0.124679
vn 0.565247 0.824540 0.025092
vn 0.659540 0.693745 -0.289354
vn 0.592670 0.780705 -0.198097
vn -0.435075 0.834397 0.338367
vn -0.419500 0.828875 0.370115
vn -0.354591 0.873826 0.332707
vn -0.332633 0.888581 0.315877
vn -0.286421 0.957963 -0.016445
vn -0.334042 0.931224 0.145730
vn -0.342363 0.929480 0.137309
vn -0.319602 0.946952 0.033716
vn -0.670015 0.691412 -0.270238
vn -0.602765 0.777696 -0.178502
vn -0.572096 0.818837 0.047022
vn -0.526457 0.832056 0.174718
vn 0.098555 0.994744 -0.027777
vn 0.421388 0.825120 -0.376309
vn 0.407931 0.819615 -0.402272
vn 0.381733 0.807340 -0.449981
vn 0.132209 0.988922 0.067485
vn 0.397629 0.815022 -0.421462
vn 0.179690 0.944284 0.275751
vn 0.241472 0.911371 0.333307
vn 0.278498 0.928517 0.245550
vn -0.108194 0.993645 -0.031038
vn -0.003936 0.998325 -0.057727
vn -0.385291 0.808615 -0.444627
vn -0.416247 0.821856 -0.388963
vn -0.431882 0.827444 -0.358907
vn -0.022021 0.964703 0.262418
vn -0.205883 0.937274 0.281300
vn -0.141349 0.986680 0.080515
vn -0.007873 0.997566 0.069280
vn -0.404434 0.817127 -0.410776
vn -0.000980 0.971281 0.237934
vn -0.014157 0.945510 0.325285
vn -0.293117 0.919404 0.262256
vn -0.257081 0.908895 0.328357
vt 0.306867 -0.026161
vt 0.078743 -0.101421
vt 0.200424 -0.078079
vt 0.142833 -0.089870
vt 0.254580 -0.057183
vt 0.275526 -0.157376
vt 0.065506 -0.126314
vt 0.209849 -0.208075
vt 0.127759 -0.261498
vt 0.166123 -0.235597
vt 0.397508 -0.105199
vt 0.371470 -0.109677
vt 0.188852 -0.106344
vt 0.150753 -0.162610
vt 0.390634 -0.101363
vt 0.394095 -0.110936
vt 0.394095 -0.110936
vt 0.400923 -0.119676
vt 0.379696 -0.120758
vt 0.390678 -0.129724
vt 0.245254 -0.241799
vt 0.342420 -0.177621
vt 0.371671 -0.148340
vt 0.298804 -0.181246
vt 0.268056 -0.261218
vt 0.203634 -0.268795
vt 0.186007 -0.314912
vt 0.225406 -0.288177
vt 0.106125 -0.139636
vt 0.048646 -0.148507
vt 0.270576 -0.214693
vt 0.327827 -0.153136
vt 0.175497 -0.131107
vt 0.121896 -0.203305
vt 0.081932 -0.168466
vt 0.300722 -0.096044
vt 0.165694 -0.294504
vt 0.034033 -0.168774
vt 0.248920 -0.129918
vt 0.093836 -0.235330
vt 0.056732 -0.213776
vt 0.290341 -0.237719
vt 0.356702 -0.134942
vt 0.303764 -0.052648
vt 0.313525 -0.125741
vt 0.318191 -0.205146
vt 0.250251 -0.092066
vt 0.246460 -0.177246
vt 0.124684 -0.117843
vt 0.349548 -0.050499
vt 0.388138 -0.019839
vt 0.347237 -0.095083
vt 0.352775 -0.031529
vt 0.348870 -0.118546
vt 0.380260 -0.047088
vt 0.440004 -0.038093
vt 0.473818 -0.036039
vt 0.448297 -0.070531
vt 0.371470 -0.109677
vt 0.430015 -0.073368
vt 0.369957 -0.091598
vt 0.454762 -0.036586
vt 0.469439 -0.068144
vt 0.482360 -0.093619
vt 0.467133 -0.083857
vt 0.465693 -0.094661
vt 0.397104 -0.044712
vt 0.479571 -0.019861
vt 0.406789 -0.019064
vt 0.488928 -0.020455
vt 0.485994 -0.067715
vt 0.408588 -0.101148
vt 0.387426 -0.086249
vt 0.483124 -0.082469
vt 0.489687 -0.013088
vt 0.390634 -0.101363
vt 0.478226 -0.011770
vt 0.407373 -0.094660
vt 0.487837 -0.036255
vt 0.408506 -0.079456
vt 0.418178 -0.041714
vt 0.446547 -0.022054
vt 0.426730 -0.089638
vt 0.444851 -0.086081
vt 0.464085 -0.013212
vt 0.428211 -0.013642
vt 0.426652 -0.019755
vt 0.461910 -0.020008
vt 0.448344 -0.016625
vt 0.425649 -0.097816
vt 0.444664 -0.096191
vt 0.801906 -0.078079
vt 0.923587 -0.101421
vt 0.747750 -0.057183
vt 0.695464 -0.026161
vt 0.859498 -0.089870
vt 0.726805 -0.157376
vt 0.836208 -0.235597
vt 0.936825 -0.126314
vt 0.792481 -0.208075
vt 0.874571 -0.261498
vt 0.604823 -0.105199
vt 0.851578 -0.162610
vt 0.813478 -0.106344
vt 0.601407 -0.119676
vt 0.608235 -0.110936
vt 0.622635 -0.120758
vt 0.611653 -0.129724
vt 0.630659 -0.148340
vt 0.703527 -0.181246
vt 0.659911 -0.177621
vt 0.757076 -0.241799
vt 0.816324 -0.314912
vt 0.734274 -0.261218
vt 0.645629 -0.134942
vt 0.776925 -0.288177
vt 0.688806 -0.125741
vt 0.701609 -0.096044
vt 0.698566 -0.052648
vt 0.674503 -0.153136
vt 0.753411 -0.129918
vt 0.968297 -0.168774
vt 0.877647 -0.117843
vt 0.752080 -0.092066
vt 0.826833 -0.131107
vt 0.896205 -0.139636
vt 0.953684 -0.148507
vt 0.731754 -0.214693
vt 0.684140 -0.205146
vt 0.711990 -0.237719
vt 0.880434 -0.203305
vt 0.755871 -0.177246
vt 0.945598 -0.213776
vt 0.836637 -0.294504
vt 0.798697 -0.268795
vt 0.920398 -0.168466
vt 0.908495 -0.235330
vt 0.652783 -0.050499
vt 0.655094 -0.095083
vt 0.649556 -0.031529
vt 0.653461 -0.118546
vt 0.614193 -0.019839
vt 0.622070 -0.047088
vt 0.562326 -0.038093
vt 0.528512 -0.036039
vt 0.630860 -0.109677
vt 0.632373 -0.091598
vt 0.572316 -0.073368
vt 0.547569 -0.036586
vt 0.554033 -0.070531
vt 0.532891 -0.068144
vt 0.501165 -0.093728
vt 0.501165 -0.016774
vt 0.519970 -0.093619
vt 0.535197 -0.083857
vt 0.593743 -0.101148
vt 0.536638 -0.094661
vt 0.524104 -0.011770
vt 0.512644 -0.013088
vt 0.594957 -0.094660
vt 0.522760 -0.019861
vt 0.605226 -0.044712
vt 0.614905 -0.086249
vt 0.519207 -0.082469
vt 0.501165 -0.082378
vt 0.513402 -0.020455
vt 0.514493 -0.036255
vt 0.501165 -0.037329
vt 0.501165 -0.067448
vt 0.501165 -0.021811
vt 0.595542 -0.019064
vt 0.611696 -0.101363
vt 0.516336 -0.067715
vt 0.593825 -0.079456
vt 0.584153 -0.041714
vt 0.557480 -0.086081
vt 0.575601 -0.089638
vt 0.574119 -0.013642
vt 0.575679 -0.019755
vt 0.538245 -0.013212
vt 0.540421 -0.020008
vt 0.555784 -0.022054
vt 0.557667 -0.096191
vt 0.576682 -0.097816
vt 0.553986 -0.016625
vt 0.306867 -0.026161
vt 0.078743 -0.101421
vt 0.200424 -0.078079
vt 0.142833 -0.089870
vt 0.254580 -0.057183
vt 0.275526 -0.157376
vt 0.065506 -0.126314
vt 0.209849 -0.208075
vt 0.166123 -0.235597
vt 0.127759 -0.261498
vt 0.150753 -0.162610
vt 0.188852 -0.106344
vt 0.394095 -0.110936
vt 0.390634 -0.101363
vt 0.371470 -0.109677
vt 0.400923 -0.119676
vt 0.394095 -0.110936
vt 0.379696 -0.120758
vt 0.390678 -0.129724
vt 0.342420 -0.177621
vt 0.371671 -0.148340
vt 0.298804 -0.181246
vt 0.186007 -0.314912
vt 0.245254 -0.241799
vt 0.268056 -0.261218
vt 0.246460 -0.177246
vt 0.248920 -0.129918
vt 0.175497 -0.131107
vt 0.106125 -0.139636
vt 0.048646 -0.148507
vt 0.270576 -0.214693
vt 0.327827 -0.153136
vt 0.250251 -0.092066
vt 0.121896 -0.203305
vt 0.303764 -0.052648
vt 0.081932 -0.168466
vt 0.165694 -0.294504
vt 0.203634 -0.268795
vt 0.124684 -0.117843
vt 0.093836 -0.235330
vt 0.225406 -0.288177
vt 0.300722 -0.096044
vt 0.313525 -0.125741
vt 0.034033 -0.168774
vt 0.356702 -0.134942
vt 0.056732 -0.213776
vt 0.290341 -0.237719
vt 0.318191 -0.205146
vt 0.347237 -0.095083
vt 0.349548 -0.050499
vt 0.352775 -0.031529
vt 0.348870 -0.118546
vt 0.388138 -0.019839
vt 0.406789 -0.019064
vt 0.380260 -0.047088
vt 0.397104 -0.044712
vt 0.371470 -0.109677
vt 0.387426 -0.086249
vt 0.390634 -0.101363
vt 0.369957 -0.091598
vt 0.695464 -0.026161
vt 0.747750 -0.057183
vt 0.923587 -0.101421
vt 0.801906 -0.078079
vt 0.859498 -0.089870
vt 0.726805 -0.157376
vt 0.836208 -0.235597
vt 0.936825 -0.126314
vt 0.792481 -0.208075
vt 0.874571 -0.261498
vt 0.851578 -0.162610
vt 0.813478 -0.106344
vt 0.608235 -0.110936
vt 0.601407 -0.119676
vt 0.611653 -0.129724
vt 0.622635 -0.120758
vt 0.630659 -0.148340
vt 0.659911 -0.177621
vt 0.757076 -0.241799
vt 0.703527 -0.181246
vt 0.816324 -0.314912
vt 0.776925 -0.288177
vt 0.798697 -0.268795
vt 0.734274 -0.261218
vt 0.755871 -0.177246
vt 0.920398 -0.168466
vt 0.877647 -0.117843
vt 0.826833 -0.131107
vt 0.688806 -0.125741
vt 0.953684 -0.148507
vt 0.731754 -0.214693
vt 0.753411 -0.129918
vt 0.701609 -0.096044
vt 0.880434 -0.203305
vt 0.698566 -0.052648
vt 0.711990 -0.237719
vt 0.836637 -0.294504
vt 0.752080 -0.092066
vt 0.674503 -0.153136
vt 0.908495 -0.235330
vt 0.945598 -0.213776
vt 0.684140 -0.205146
vt 0.645629 -0.134942
vt 0.896205 -0.139636
vt 0.968297 -0.168774
vt 0.655094 -0.095083
vt 0.614193 -0.019839
vt 0.653461 -0.118546
vt 0.652783 -0.050499
vt 0.649556 -0.031529
vt 0.630860 -0.109677
vt 0.622070 -0.047088
vt 0.611696 -0.101363
vt 0.595542 -0.019064
vt 0.632373 -0.091598
vt 0.605226 -0.044712
vt 0.614905 -0.086249
vt 0.397508 -0.105199
vt 0.408588 -0.101148
vt 0.390634 -0.101363
vt 0.387426 -0.086249
vt 0.397104 -0.044712
vt 0.406789 -0.019064
vt 0.426652 -0.019755
vt 0.408506 -0.079456
vt 0.604823 -0.105199
vt 0.593743 -0.101148
vt 0.584153 -0.041714
vt 0.605226 -0.044712
vt 0.614905 -0.086249
vt 0.611696 -0.101363
vt 0.594957 -0.094660
vt 0.593825 -0.079456
vt 0.575679 -0.019755
vt 0.595542 -0.019064
vt 0.418178 -0.041714
vt 0.440004 -0.038093
vt 0.430015 -0.073368
vt 0.408506 -0.079456
vt 0.408588 -0.101148
vt 0.407373 -0.094660
vt 0.425649 -0.097816
vt 0.426730 -0.089638
vt 0.446547 -0.022054
vt 0.428211 -0.013642
vt 0.448344 -0.016625
vt 0.426652 -0.019755
vt 0.584153 -0.041714
vt 0.562326 -0.038093
vt 0.575601 -0.089638
vt 0.572316 -0.073368
vt 0.593825 -0.079456
vt 0.576682 -0.097816
vt 0.593743 -0.101148
vt 0.594957 -0.094660
vt 0.574119 -0.013642
vt 0.555784 -0.022054
vt 0.575679 -0.019755
vt 0.553986 -0.016625
vt 0.430015 -0.073368
vt 0.454762 -0.036586
vt 0.448297 -0.070531
vt 0.440004 -0.038093
vt 0.464085 -0.013212
vt 0.461910 -0.020008
vt 0.446547 -0.022054
vt 0.448344 -0.016625
vt 0.425649 -0.097816
vt 0.426730 -0.089638
vt 0.444851 -0.086081
vt 0.444664 -0.096191
vt 0.572316 -0.073368
vt 0.554033 -0.070531
vt 0.562326 -0.038093
vt 0.538245 -0.013212
vt 0.557480 -0.086081
vt 0.553986 -0.016625
vt 0.555784 -0.022054
vt 0.540421 -0.020008
vt 0.557667 -0.096191
vt 0.576682 -0.097816
vt 0.575601 -0.089638
vt 0.464085 -0.013212
vt 0.478226 -0.011770
vt 0.479571 -0.019861
vt 0.461910 -0.020008
vt 0.473818 -0.036039
vt 0.448297 -0.070531
vt 0.454762 -0.036586
vt 0.469439 -0.068144
vt 0.444851 -0.086081
vt 0.444664 -0.096191
vt 0.467133 -0.083857
vt 0.465693 -0.094661
vt 0.538245 -0.013212
vt 0.524104 -0.011770
vt 0.522760 -0.019861
vt 0.540421 -0.020008
vt 0.547569 -0.036586
vt 0.554033 -0.070531
vt 0.532891 -0.068144
vt 0.528512 -0.036039
vt 0.557667 -0.096191
vt 0.536638 -0.094661
vt 0.535197 -0.083857
vt 0.557480 -0.086081
vt 0.487837 -0.036255
vt 0.469439 -0.068144
vt 0.473818 -0.036039
vt 0.467133 -0.083857
vt 0.485994 -0.067715
vt 0.482360 -0.093619
vt 0.465693 -0.094661
vt 0.483124 -0.082469
vt 0.479571 -0.019861
vt 0.488928 -0.020455
vt 0.489687 -0.013088
vt 0.478226 -0.011770
vt 0.514493 -0.036255
vt 0.528512 -0.036039
vt 0.516336 -0.067715
vt 0.532891 -0.068144
vt 0.519970 -0.093619
vt 0.519207 -0.082469
vt 0.535197 -0.083857
vt 0.536638 -0.094661
vt 0.512644 -0.013088
vt 0.524104 -0.011770
vt 0.513402 -0.020455
vt 0.522760 -0.019861
vt 0.482360 -0.093619
vt 0.489687 -0.013088
vt 0.488928 -0.020455
vt 0.501165 -0.021811
vt 0.483124 -0.082469
vt 0.501165 -0.016774
vt 0.485994 -0.067715
vt 0.487837 -0.036255
vt 0.488928 -0.020455
vt 0.519970 -0.093619
vt 0.501165 -0.093728
vt 0.501165 -0.021811
vt 0.513402 -0.020455
vt 0.512644 -0.013088
vt 0.501165 -0.067448
vt 0.516336 -0.067715
vt 0.519207 -0.082469
vt 0.501165 -0.082378
vt 0.501165 -0.016774
vt 0.501165 -0.021811
vt 0.501165 -0.037329
vt 0.513402 -0.020455
vt 0.514493 -0.036255
g studio.beardchopper.smd.mesh_0
f 15/15/15 16/16/16 12/12/12
f 19/19/19 59/59/59 17/17/17
f 17/17/17 18/18/18 19/19/19
f 20/20/20 19/19/19 18/18/18
f 20/20/20 23/23/23 19/19/19
f 91/91/91 84/84/84 66/66/66
f 84/84/84 91/91/91 83/83/83
f 90/90/90 83/83/83 91/91/91
f 83/83/83 90/90/90 78/78/78
f 78/78/78 80/80/80 83/83/83
f 80/80/80 78/78/78 73/73/73
f 76/76/76 73/73/73 78/78/78
f 73/73/73 76/76/76 61/61/61
f 59/59/59 61/61/61 76/76/76
f 59/59/59 54/54/54 61/61/61
f 59/59/59 19/19/19 54/54/54
f 43/43/43 54/54/54 19/19/19
f 43/43/43 19/19/19 23/23/23
f 43/43/43 23/23/23 32/32/32
f 22/22/22 32/32/32 23/23/23
f 22/22/22 46/46/46 32/32/32
f 43/43/43 32/32/32 54/54/54
f 72/72/72 78/78/78 90/90/90
f 78/78/78 72/72/72 76/76/76
f 11/11/11 76/76/76 72/72/72
f 81/81/81 80/80/80 67/67/67
f 73/73/73 67/67/67 80/80/80
f 73/73/73 61/61/61 67/67/67
f 55/55/55 67/67/67 61/61/61
f 61/61/61 52/52/52 55/55/55
f 52/52/52 61/61/61 54/54/54
f 54/54/54 45/45/45 52/52/52
f 45/45/45 54/54/54 32/32/32
f 36/36/36 52/52/52 45/45/45
f 52/52/52 36/36/36 50/50/50
f 50/50/50 55/55/55 52/52/52
f 44/44/44 50/50/50 36/36/36
f 25/25/25 28/28/28 21/21/21
f 21/21/21 31/31/31 25/25/25
f 42/42/42 25/25/25 31/31/31
f 46/46/46 42/42/42 31/31/31
f 24/24/24 46/46/46 31/31/31
f 24/24/24 32/32/32 46/46/46
f 24/24/24 6/6/6 32/32/32
f 45/45/45 32/32/32 6/6/6
f 39/39/39 45/45/45 6/6/6
f 36/36/36 45/45/45 39/39/39
f 39/39/39 47/47/47 36/36/36
f 47/47/47 44/44/44 36/36/36
f 47/47/47 5/5/5 44/44/44
f 5/5/5 1/1/1 44/44/44
f 44/44/44 1/1/1 53/53/53
f 50/50/50 44/44/44 53/53/53
f 53/53/53 51/51/51 50/50/50
f 55/55/55 50/50/50 51/51/51
f 3/3/3 5/5/5 47/47/47
f 33/33/33 48/48/48 14/14/14
f 33/33/33 39/39/39 48/48/48
f 39/39/39 6/6/6 48/48/48
f 6/6/6 24/24/24 48/48/48
f 31/31/31 48/48/48 24/24/24
f 48/48/48 31/31/31 8/8/8
f 31/31/31 21/21/21 8/8/8
f 48/48/48 8/8/8 14/14/14
f 26/26/26 10/10/10 21/21/21
f 8/8/8 21/21/21 10/10/10
f 10/10/10 34/34/34 8/8/8
f 14/14/14 8/8/8 34/34/34
f 34/34/34 35/35/35 14/14/14
f 29/29/29 14/14/14 35/35/35
f 33/33/33 14/14/14 29/29/29
f 29/29/29 49/49/49 33/33/33
f 13/13/13 33/33/33 49/49/49
f 33/33/33 13/13/13 39/39/39
f 47/47/47 39/39/39 13/13/13
f 13/13/13 3/3/3 47/47/47
f 4/4/4 3/3/3 13/13/13
f 49/49/49 4/4/4 13/13/13
f 2/2/2 4/4/4 49/49/49
f 7/7/7 2/2/2 49/49/49
f 49/49/49 29/29/29 7/7/7
f 7/7/7 29/29/29 30/30/30
f 35/35/35 30/30/30 29/29/29
f 38/38/38 30/30/30 35/35/35
f 41/41/41 38/38/38 35/35/35
f 35/35/35 34/34/34 41/41/41
f 34/34/34 40/40/40 41/41/41
f 40/40/40 34/34/34 9/9/9
f 10/10/10 9/9/9 34/34/34
f 9/9/9 10/10/10 37/37/37
f 26/26/26 37/37/37 10/10/10
f 26/26/26 28/28/28 37/37/37
f 26/26/26 21/21/21 28/28/28
f 27/27/27 37/37/37 28/28/28
f 429/429/429 434/434/434 428/428/428
f 427/427/427 428/428/428 434/434/434
f 419/419/419 421/421/421 418/418/418
f 417/417/417 418/418/418 421/421/421
f 303/303/303 304/304/304 305/305/305
f 326/326/326 305/305/305 304/304/304
f 305/305/305 326/326/326 306/306/306
f 310/310/310 306/306/306 326/326/326
f 306/306/306 310/310/310 307/307/307
f 321/321/321 307/307/307 310/310/310
f 321/321/321 309/309/309 307/307/307
f 308/308/308 307/307/307 309/309/309
f 308/308/308 309/309/309 330/330/330
f 330/330/330 332/332/332 331/331/331
f 329/329/329 331/331/331 332/332/332
f 329/329/329 332/332/332 322/322/322
f 321/321/321 322/322/322 332/332/332
f 321/321/321 324/324/324 322/322/322
f 323/323/323 322/322/322 324/324/324
f 323/323/323 324/324/324 328/328/328
f 326/326/326 328/328/328 324/324/324
f 328/328/328 326/326/326 327/327/327
f 325/325/325 327/327/327 326/326/326
f 425/425/425 432/432/432 426/426/426
f 416/416/416 426/426/426 420/420/420
f 433/433/433 420/420/420 426/426/426
f 433/433/433 426/426/426 432/432/432
f 432/432/432 431/431/431 433/433/433
f 430/430/430 433/433/433 431/431/431
f 430/430/430 431/431/431 436/436/436
f 430/430/430 436/436/436 422/422/422
f 423/423/423 422/422/422 436/436/436
f 423/423/423 436/436/436 424/424/424
f 435/435/435 424/424/424 436/436/436
f 435/435/435 436/436/436 437/437/437
f 438/438/438 437/437/437 436/436/436
f 438/438/438 436/436/436 431/431/431
f 430/430/430 422/422/422 433/433/433
f 420/420/420 433/433/433 422/422/422
f 319/319/319 320/320/320 341/341/341
f 320/320/320 319/319/319 314/314/314
f 313/313/313 314/314/314 319/319/319
f 313/313/313 318/318/318 314/314/314
f 315/315/315 314/314/314 318/318/318
f 318/318/318 317/317/317 315/315/315
f 316/316/316 315/315/315 317/317/317
f 317/317/317 312/312/312 316/316/316
f 311/311/311 316/316/316 312/312/312
f 341/341/341 344/344/344 343/343/343
f 342/342/342 343/343/343 344/344/344
f 342/342/342 334/334/334 343/343/343
f 333/333/333 343/343/343 334/334/334
f 333/333/333 334/334/334 337/337/337
f 336/336/336 337/337/337 334/334/334
f 336/336/336 335/335/335 337/337/337
f 340/340/340 337/337/337 335/335/335
f 335/335/335 338/338/338 340/340/340
f 339/339/339 340/340/340 338/338/338
f 266/266/266 282/282/282 267/267/267
f 273/273/273 257/257/257 277/277/277
f 257/257/257 273/273/273 272/272/272
f 289/289/289 272/272/272 273/273/273
f 273/273/273 256/256/256 289/289/289
f 289/289/289 256/256/256 271/271/271
f 279/279/279 271/271/271 256/256/256
f 271/271/271 279/279/279 286/286/286
f 279/279/279 285/285/285 286/286/286
f 285/285/285 279/279/279 255/255/255
f 252/252/252 255/255/255 279/279/279
f 255/255/255 252/252/252 282/282/282
f 268/268/268 282/282/282 252/252/252
f 268/268/268 267/267/267 282/282/282
f 268/268/268 264/264/264 267/267/267
f 269/269/269 267/267/267 264/264/264
f 264/264/264 276/276/276 269/269/269
f 281/281/281 269/269/269 276/276/276
f 287/287/287 281/281/281 276/276/276
f 271/271/271 275/275/275 289/289/289
f 290/290/290 275/275/275 271/271/271
f 286/286/286 290/290/290 271/271/271
f 268/268/268 252/252/252 264/264/264
f 254/254/254 264/264/264 252/252/252
f 276/276/276 264/264/264 254/254/254
f 270/270/270 276/276/276 254/254/254
f 276/276/276 270/270/270 265/265/265
f 251/251/251 265/265/265 270/270/270
f 277/277/277 251/251/251 270/270/270
f 273/273/273 277/277/277 270/270/270
f 273/273/273 270/270/270 256/256/256
f 270/270/270 254/254/254 256/256/256
f 256/256/256 254/254/254 279/279/279
f 252/252/252 279/279/279 254/254/254
f 265/265/265 287/287/287 276/276/276
f 265/265/265 284/284/284 287/287/287
f 265/265/265 251/251/251 284/284/284
f 274/274/274 284/284/284 251/251/251
f 277/277/277 274/274/274 251/251/251
f 278/278/278 274/274/274 277/277/277
f 263/263/263 287/287/287 284/284/284
f 263/263/263 284/284/284 262/262/262
f 302/302/302 298/298/298 300/300/300
f 296/296/296 300/300/300 298/298/298
f 298/298/298 258/258/258 296/296/296
f 261/261/261 296/296/296 258/258/258
f 258/258/258 259/259/259 261/261/261
f 260/260/260 261/261/261 259/259/259
f 260/260/260 262/262/262 261/261/261
f 288/288/288 261/261/261 262/262/262
f 288/288/288 262/262/262 284/284/284
f 288/288/288 284/284/284 293/293/293
f 274/274/274 293/293/293 284/284/284
f 293/293/293 274/274/274 291/291/291
f 278/278/278 291/291/291 274/274/274
f 291/291/291 278/278/278 294/294/294
f 280/280/280 294/294/294 278/278/278
f 283/283/283 280/280/280 278/278/278
f 277/277/277 283/283/283 278/278/278
f 283/283/283 277/277/277 257/257/257
f 294/294/294 297/297/297 291/291/291
f 300/300/300 291/291/291 297/297/297
f 291/291/291 300/300/300 293/293/293
f 296/296/296 293/293/293 300/300/300
f 296/296/296 261/261/261 293/293/293
f 288/288/288 293/293/293 261/261/261
f 253/253/253 289/289/289 275/275/275
f 272/272/272 289/289/289 253/253/253
f 253/253/253 248/248/248 272/272/272
f 248/248/248 250/250/250 272/272/272
f 272/272/272 250/250/250 257/257/257
f 250/250/250 249/249/249 257/257/257
f 257/257/257 249/249/249 283/283/283
f 249/249/249 247/247/247 283/283/283
f 283/283/283 247/247/247 280/280/280
f 247/247/247 246/246/246 280/280/280
f 280/280/280 246/246/246 295/295/295
f 294/294/294 280/280/280 295/295/295
f 295/295/295 292/292/292 294/294/294
f 297/297/297 294/294/294 292/292/292
f 292/292/292 299/299/299 297/297/297
f 301/301/301 297/297/297 299/299/299
f 297/297/297 301/301/301 300/300/300
f 302/302/302 300/300/300 301/301/301
f 60/60/60 56/56/56 58/58/58
f 62/62/62 58/58/58 56/56/56
f 51/51/51 69/69/69 55/55/55
f 67/67/67 55/55/55 69/69/69
f 69/69/69 87/87/87 67/67/67
f 81/81/81 67/67/67 87/87/87
f 81/81/81 87/87/87 56/56/56
f 81/81/81 56/56/56 80/80/80
f 60/60/60 80/80/80 56/56/56
f 60/60/60 83/83/83 80/80/80
f 60/60/60 58/58/58 83/83/83
f 84/84/84 83/83/83 58/58/58
f 84/84/84 58/58/58 65/65/65
f 65/65/65 66/66/66 84/84/84
f 65/65/65 74/74/74 66/66/66
f 64/64/64 66/66/66 74/74/74
f 64/64/64 74/74/74 152/152/152
f 165/165/165 152/152/152 74/74/74
f 165/165/165 164/164/164 152/152/152
f 164/164/164 165/165/165 173/173/173
f 87/87/87 69/69/69 86/86/86
f 86/86/86 89/89/89 87/87/87
f 82/82/82 87/87/87 89/89/89
f 82/82/82 56/56/56 87/87/87
f 82/82/82 88/88/88 56/56/56
f 62/62/62 56/56/56 88/88/88
f 62/62/62 88/88/88 57/57/57
f 62/62/62 57/57/57 58/58/58
f 63/63/63 58/58/58 57/57/57
f 63/63/63 65/65/65 58/58/58
f 63/63/63 71/71/71 65/65/65
f 74/74/74 65/65/65 71/71/71
f 74/74/74 71/71/71 165/165/165
f 169/169/169 165/165/165 71/71/71
f 169/169/169 173/173/173 165/165/165
f 169/169/169 168/168/168 173/173/173
f 167/167/167 173/173/173 168/168/168
f 167/167/167 168/168/168 166/166/166
f 63/63/63 57/57/57 71/71/71
f 68/68/68 57/57/57 88/88/88
f 170/170/170 166/166/166 168/168/168
f 169/169/169 71/71/71 168/168/168
f 79/79/79 168/168/168 71/71/71
f 79/79/79 71/71/71 57/57/57
f 79/79/79 57/57/57 70/70/70
f 68/68/68 70/70/70 57/57/57
f 68/68/68 77/77/77 70/70/70
f 68/68/68 88/88/88 77/77/77
f 85/85/85 77/77/77 88/88/88
f 85/85/85 88/88/88 89/89/89
f 82/82/82 89/89/89 88/88/88
f 79/79/79 70/70/70 168/168/168
f 170/170/170 168/168/168 70/70/70
f 170/170/170 70/70/70 153/153/153
f 170/170/170 153/153/153 166/166/166
f 159/159/159 166/166/166 153/153/153
f 159/159/159 158/158/158 166/166/166
f 161/161/161 166/166/166 158/158/158
f 75/75/75 70/70/70 77/77/77
f 75/75/75 153/153/153 70/70/70
f 167/167/167 166/166/166 145/145/145
f 161/161/161 145/145/145 166/166/166
f 161/161/161 181/181/181 145/145/145
f 161/161/161 158/158/158 181/181/181
f 180/180/180 181/181/181 158/158/158
f 180/180/180 185/185/185 181/181/181
f 182/182/182 181/181/181 185/185/185
f 151/151/151 173/173/173 145/145/145
f 167/167/167 145/145/145 173/173/173
f 164/164/164 173/173/173 155/155/155
f 151/151/151 155/155/155 173/173/173
f 151/151/151 150/150/150 155/155/155
f 151/151/151 145/145/145 150/150/150
f 149/149/149 150/150/150 145/145/145
f 149/149/149 145/145/145 181/181/181
f 149/149/149 181/181/181 144/144/144
f 182/182/182 144/144/144 181/181/181
f 182/182/182 179/179/179 144/144/144
f 182/182/182 185/185/185 179/179/179
f 178/178/178 179/179/179 185/185/185
f 171/171/171 179/179/179 178/178/178
f 171/171/171 162/162/162 179/179/179
f 143/143/143 162/162/162 171/171/171
f 143/143/143 147/147/147 162/162/162
f 139/139/139 147/147/147 143/143/143
f 139/139/139 141/141/141 147/147/147
f 117/117/117 141/141/141 139/139/139
f 139/139/139 118/118/118 117/117/117
f 148/148/148 144/144/144 174/174/174
f 175/175/175 174/174/174 144/144/144
f 175/175/175 144/144/144 179/179/179
f 175/175/175 179/179/179 162/162/162
f 175/175/175 162/162/162 174/174/174
f 163/163/163 174/174/174 162/162/162
f 163/163/163 162/162/162 147/147/147
f 97/97/97 121/121/121 132/132/132
f 117/117/117 121/121/121 97/97/97
f 117/117/117 118/118/118 121/121/121
f 124/124/124 121/121/121 118/118/118
f 119/119/119 124/124/124 118/118/118
f 138/138/138 119/119/119 118/118/118
f 118/118/118 139/139/139 138/138/138
f 143/143/143 138/138/138 139/139/139
f 101/101/101 134/134/134 98/98/98
f 98/98/98 131/131/131 101/101/101
f 131/131/131 98/98/98 100/100/100
f 100/100/100 103/103/103 131/131/131
f 100/100/100 132/132/132 103/103/103
f 132/132/132 125/125/125 103/103/103
f 121/121/121 125/125/125 132/132/132
f 104/104/104 125/125/125 121/121/121
f 121/121/121 124/124/124 104/104/104
f 92/92/92 104/104/104 124/124/124
f 94/94/94 92/92/92 124/124/124
f 94/94/94 124/124/124 119/119/119
f 95/95/95 94/94/94 119/119/119
f 95/95/95 119/119/119 140/140/140
f 119/119/119 138/138/138 140/140/140
f 142/142/142 140/140/140 138/138/138
f 138/138/138 143/143/143 142/142/142
f 171/171/171 142/142/142 143/143/143
f 136/136/136 131/131/131 103/103/103
f 103/103/103 126/126/126 136/136/136
f 103/103/103 125/125/125 126/126/126
f 123/123/123 126/126/126 125/125/125
f 125/125/125 104/104/104 123/123/123
f 92/92/92 96/96/96 104/104/104
f 96/96/96 123/123/123 104/104/104
f 96/96/96 93/93/93 123/123/123
f 93/93/93 99/99/99 123/123/123
f 126/126/126 123/123/123 99/99/99
f 126/126/126 99/99/99 127/127/127
f 127/127/127 136/136/136 126/126/126
f 127/127/127 122/122/122 136/136/136
f 122/122/122 133/133/133 136/136/136
f 131/131/131 136/136/136 133/133/133
f 137/137/137 131/131/131 133/133/133
f 137/137/137 101/101/101 131/131/131
f 408/408/408 411/411/411 409/409/409
f 410/410/410 409/409/409 411/411/411
f 409/409/409 410/410/410 406/406/406
f 407/407/407 406/406/406 410/410/410
f 407/407/407 405/405/405 406/406/406
f 404/404/404 406/406/406 405/405/405
f 404/404/404 405/405/405 414/414/414
f 415/415/415 414/414/414 405/405/405
f 415/415/415 413/413/413 414/414/414
f 412/412/412 414/414/414 413/413/413
f 199/199/199 200/200/200 198/198/198
f 402/402/402 403/403/403 401/401/401
f 400/400/400 401/401/401 403/403/403
f 400/400/400 394/394/394 401/401/401
f 392/392/392 401/401/401 394/394/394
f 392/392/392 394/394/394 396/396/396
f 393/393/393 396/396/396 394/394/394
f 393/393/393 395/395/395 396/396/396
f 399/399/399 396/396/396 395/395/395
f 395/395/395 398/398/398 399/399/399
f 397/397/397 399/399/399 398/398/398
f 208/208/208 226/226/226 222/222/222
f 225/225/225 219/219/219 231/231/231
f 225/225/225 195/195/195 219/219/219
f 194/194/194 219/219/219 195/195/195
f 195/195/195 222/222/222 194/194/194
f 223/223/223 194/194/194 222/222/222
f 223/223/223 222/222/222 226/226/226
f 223/223/223 226/226/226 209/209/209
f 210/210/210 209/209/209 226/226/226
f 209/209/209 210/210/210 216/216/216
f 232/232/232 216/216/216 210/210/210
f 232/232/232 233/233/233 216/216/216
f 233/233/233 207/207/207 216/216/216
f 211/211/211 216/216/216 207/207/207
f 216/216/216 211/211/211 193/193/193
f 193/193/193 211/211/211 196/196/196
f 193/193/193 196/196/196 219/219/219
f 221/221/221 219/219/219 196/196/196
f 196/196/196 214/214/214 221/221/221
f 209/209/209 216/216/216 193/193/193
f 209/209/209 193/193/193 194/194/194
f 219/219/219 194/194/194 193/193/193
f 194/194/194 223/223/223 209/209/209
f 211/211/211 213/213/213 196/196/196
f 235/235/235 240/240/240 238/238/238
f 238/238/238 236/236/236 235/235/235
f 220/220/220 235/235/235 236/236/236
f 186/186/186 220/220/220 236/236/236
f 186/186/186 190/190/190 220/220/220
f 190/190/190 218/218/218 220/220/220
f 190/190/190 188/188/188 218/218/218
f 188/188/188 197/197/197 218/218/218
f 188/188/188 189/189/189 197/197/197
f 189/189/189 224/224/224 197/197/197
f 189/189/189 187/187/187 224/224/224
f 187/187/187 192/192/192 224/224/224
f 214/214/214 224/224/224 192/192/192
f 214/214/214 192/192/192 215/215/215
f 215/215/215 221/221/221 214/214/214
f 215/215/215 229/229/229 221/221/221
f 229/229/229 231/231/231 221/221/221
f 219/219/219 221/221/221 231/231/231
f 196/196/196 213/213/213 214/214/214
f 224/224/224 214/214/214 213/213/213
f 213/213/213 197/197/197 224/224/224
f 197/197/197 213/213/213 212/212/212
f 212/212/212 218/218/218 197/197/197
f 218/218/218 212/212/212 227/227/227
f 220/220/220 218/218/218 227/227/227
f 235/235/235 220/220/220 227/227/227
f 227/227/227 234/234/234 235/235/235
f 240/240/240 235/235/235 234/234/234
f 234/234/234 245/245/245 240/240/240
f 234/234/234 237/237/237 245/245/245
f 228/228/228 237/237/237 234/234/234
f 228/228/228 217/217/217 237/237/237
f 217/217/217 228/228/228 191/191/191
f 228/228/228 212/212/212 191/191/191
f 228/228/228 227/227/227 212/212/212
f 234/234/234 227/227/227 228/228/228
f 230/230/230 237/237/237 217/217/217
f 212/212/212 213/213/213 211/211/211
f 191/191/191 212/212/212 211/211/211
f 207/207/207 191/191/191 211/211/211
f 191/191/191 207/207/207 217/217/217
f 207/207/207 233/233/233 217/217/217
f 205/205/205 217/217/217 233/233/233
f 205/205/205 206/206/206 217/217/217
f 230/230/230 217/217/217 206/206/206
f 230/230/230 206/206/206 203/203/203
f 230/230/230 203/203/203 237/237/237
f 242/242/242 237/237/237 203/203/203
f 242/242/242 245/245/245 237/237/237
f 242/242/242 244/244/244 245/245/245
f 243/243/243 245/245/245 244/244/244
f 243/243/243 241/241/241 245/245/245
f 240/240/240 245/245/245 241/241/241
f 240/240/240 241/241/241 239/239/239
f 239/239/239 238/238/238 240/240/240
f 204/204/204 203/203/203 206/206/206
f 204/204/204 201/201/201 203/203/203
f 202/202/202 203/203/203 201/201/201
f 203/203/203 202/202/202 242/242/242
f 108/108/108 107/107/107 109/109/109
f 108/108/108 105/105/105 107/107/107
f 106/106/106 107/107/107 105/105/105
f 107/107/107 106/106/106 146/146/146
f 172/172/172 146/146/146 106/106/106
f 149/149/149 144/144/144 150/150/150
f 148/148/148 150/150/150 144/144/144
f 148/148/148 177/177/177 150/150/150
f 148/148/148 174/174/174 177/177/177
f 160/160/160 177/177/177 174/174/174
f 174/174/174 163/163/163 160/160/160
f 172/172/172 160/160/160 163/163/163
f 163/163/163 147/147/147 172/172/172
f 146/146/146 172/172/172 147/147/147
f 146/146/146 147/147/147 141/141/141
f 146/146/146 141/141/141 107/107/107
f 115/115/115 107/107/107 141/141/141
f 115/115/115 109/109/109 107/107/107
f 115/115/115 120/120/120 109/109/109
f 111/111/111 109/109/109 120/120/120
f 111/111/111 120/120/120 129/129/129
f 110/110/110 129/129/129 120/120/120
f 129/129/129 110/110/110 128/128/128
f 115/115/115 141/141/141 120/120/120
f 154/154/154 152/152/152 164/164/164
f 154/154/154 164/164/164 157/157/157
f 155/155/155 157/157/157 164/164/164
f 155/155/155 176/176/176 157/157/157
f 176/176/176 155/155/155 150/150/150
f 176/176/176 150/150/150 177/177/177
f 176/176/176 177/177/177 183/183/183
f 184/184/184 183/183/183 177/177/177
f 177/177/177 160/160/160 184/184/184
f 156/156/156 184/184/184 160/160/160
f 160/160/160 172/172/172 156/156/156
f 102/102/102 156/156/156 172/172/172
f 183/183/183 157/157/157 176/176/176
f 130/130/130 129/129/129 128/128/128
f 130/130/130 128/128/128 114/114/114
f 112/112/112 114/114/114 128/128/128
f 114/114/114 112/112/112 116/116/116
f 135/135/135 116/116/116 112/112/112
f 117/117/117 120/120/120 141/141/141
f 120/120/120 117/117/117 97/97/97
f 97/97/97 110/110/110 120/120/120
f 110/110/110 97/97/97 132/132/132
f 132/132/132 128/128/128 110/110/110
f 128/128/128 132/132/132 100/100/100
f 112/112/112 128/128/128 100/100/100
f 112/112/112 100/100/100 98/98/98
f 98/98/98 135/135/135 112/112/112
f 135/135/135 98/98/98 134/134/134
f 135/135/135 134/134/134 116/116/116
f 113/113/113 116/116/116 134/134/134
f 380/380/380 381/381/381 383/383/383
f 382/382/382 383/383/383 381/381/381
f 382/382/382 387/387/387 383/383/383
f 384/384/384 383/383/383 387/387/387
f 384/384/384 387/387/387 385/385/385
f 386/386/386 385/385/385 387/387/387
f 386/386/386 390/390/390 385/385/385
f 391/391/391 385/385/385 390/390/390
f 390/390/390 389/389/389 391/391/391
f 388/388/388 391/391/391 389/389/389
f 360/360/360 364/364/364 362/362/362
f 363/363/363 362/362/362 364/364/364
f 363/363/363 364/364/364 359/359/359
f 384/384/384 359/359/359 364/364/364
f 384/384/384 358/358/358 359/359/359
f 357/357/357 359/359/359 358/358/358
f 357/357/357 358/358/358 367/367/367
f 361/361/361 367/367/367 358/358/358
f 361/361/361 365/365/365 367/367/367
f 366/366/366 367/367/367 365/365/365
f 353/353/353 356/356/356 354/354/354
f 355/355/355 354/354/354 356/356/356
f 355/355/355 347/347/347 354/354/354
f 345/345/345 354/354/354 347/347/347
f 345/345/345 347/347/347 348/348/348
f 346/346/346 348/348/348 347/347/347
f 346/346/346 350/350/350 348/348/348
f 351/351/351 348/348/348 350/350/350
f 351/351/351 350/350/350 352/352/352
f 349/349/349 352/352/352 350/350/350
f 377/377/377 379/379/379 376/376/376
f 378/378/378 376/376/376 379/379/379
f 376/376/376 378/378/378 373/373/373
f 375/375/375 373/373/373 378/378/378
f 375/375/375 372/372/372 373/373/373
f 374/374/374 373/373/373 372/372/372
f 374/374/374 372/372/372 371/371/371
f 370/370/370 371/371/371 372/372/372
f 370/370/370 369/369/369 371/371/371
f 368/368/368 371/371/371 369/369/369
