# OBJ File Exported By Crafty (c) 2006 Ryan Gregg
# http://nemesis.thewavelength.net/

mtllib machete.mtl

v 0.964240 0.008697 19.720047
v 1.017603 -0.002606 19.685459
v 0.964240 -0.013909 19.720047
v 0.989332 -0.034926 8.382188
v 1.141275 -0.002606 7.954056
v 0.989331 0.029715 8.382189
v 1.141275 -0.002606 9.187502
v 0.769431 -0.082065 9.005389
v 0.769431 0.076853 9.005388
v 1.135620 -0.002606 16.697083
v 0.956535 -0.027676 16.560923
v 0.956535 0.022464 16.560923
v 0.956535 -0.027676 16.560923
v 1.137647 -0.002606 16.476566
v 0.956535 0.022464 16.560923
v 0.046896 0.278669 8.614082
v -0.677679 0.483059 8.467686
v -0.133817 0.483059 8.467686
v -0.133817 -0.488271 8.467686
v -0.858392 0.278669 8.614082
v -0.858392 -0.283880 8.614082
v 0.046896 -0.283880 8.614082
v -0.677679 -0.488271 8.467686
v -0.858392 0.278669 8.614082
v 0.046896 0.187249 7.980506
v -0.858392 0.187249 7.851784
v -0.858392 -0.192460 7.851784
v 0.046896 0.278669 8.614082
v 0.046896 -0.283880 8.614082
v -0.858392 -0.283880 8.614082
v 0.046896 -0.192460 7.980506
v -1.047484 0.187249 6.147322
v -1.047484 -0.192460 6.318368
v -1.047484 -0.192460 6.147322
v -1.047484 -0.192460 8.276958
v -1.047484 0.187249 6.318368
v -1.047484 0.187249 8.928183
v -1.047484 -0.192460 8.928183
v -1.047484 0.187249 8.276958
v -1.047484 -0.192460 7.103318
v -1.047484 0.187249 7.397276
v -1.047484 -0.192460 7.397276
v 1.030300 -0.002606 13.211732
v -1.047484 0.187249 7.103318
v 1.141275 -0.002606 12.146967
v 1.141275 -0.052018 12.484338
v 1.141275 0.046806 12.484338
v 0.964240 -0.013909 19.720047
v 0.447231 0.092321 19.522636
v 0.447231 -0.097533 19.522636
v 0.769431 0.076853 9.005388
v 0.964240 0.008697 19.720047
v 0.989332 -0.034926 8.382188
v 0.769431 -0.082065 9.005389
v 0.989331 0.029715 8.382189
v -0.507792 -0.414046 7.629222
v -0.495260 0.408834 7.622894
v 1.141275 -0.002606 6.147322
v 0.046896 -0.192460 6.147322
v -1.047484 -0.192460 6.147322
v -1.047484 0.187249 6.147322
v 0.046896 0.187249 6.147322
v 1.001525 -0.002606 19.310612
v 0.923002 0.002422 19.382843
v 0.923002 -0.012661 19.382843
v 0.447231 -0.097533 19.522636
v 0.447231 0.092321 19.522636
v 0.989331 0.029715 8.382189
v -1.047484 0.187249 6.147322
v -1.047484 0.187249 6.318368
v -1.015968 0.187249 6.649196
v -1.047484 0.187249 7.103318
v 0.046896 0.187249 6.147322
v -1.047484 0.187249 7.397276
v -1.024542 0.187249 7.854101
v 0.161638 0.187249 8.604063
v -1.047484 0.187249 8.276958
v -1.047484 0.187249 8.928183
v -0.495260 0.408834 7.622894
v -0.133817 0.408834 7.980507
v 0.133936 0.282354 6.731817
v 0.500691 0.108524 6.147322
v 0.513358 -0.002606 6.147322
v 0.500691 -0.113736 6.147322
v 0.114533 -0.167393 5.934008
v 0.243966 -0.152551 6.072187
v 0.110413 -0.002606 5.596873
v 0.114533 0.162181 5.934007
v 0.243966 0.147340 6.072187
v 0.160497 -0.002606 5.869387
v 0.296222 -0.002606 6.028230
v 0.046896 0.187249 5.697663
v 0.046896 0.187249 4.407095
v 0.133125 0.187249 3.092962
v 0.853623 0.187249 0.802376
v -0.140487 0.408834 6.471330
v -0.133817 0.408834 4.407095
v -0.047199 0.408834 3.081131
v 0.704688 0.408834 0.700027
v 0.221021 0.408834 1.714417
v -1.047484 0.187249 6.318368
v -1.066646 0.200549 6.351959
v -0.677679 0.408834 6.617600
v -1.066646 0.200549 7.071612
v -1.047484 0.187249 7.103318
v -1.047484 0.187249 8.276958
v -1.065120 0.200518 8.247565
v -0.677679 0.408834 7.851784
v -0.919618 0.285570 7.233279
v -1.047484 0.187249 7.397276
v -1.065120 0.200518 7.444111
v 0.187844 0.187249 9.165155
v -1.047484 0.187249 9.496302
v 0.769431 0.076853 9.005388
v 1.141275 0.046806 12.484338
v 0.327111 0.187249 12.146967
v -1.047484 0.187249 15.817082
v -1.047484 0.046807 16.164085
v 0.956535 0.022464 16.560923
v 0.964240 0.008697 19.720047
v 0.447231 0.092321 19.522636
v 0.046896 0.187249 22.501102
v 0.594085 0.187249 22.501102
v -0.257742 0.187249 16.390282
v 0.046896 0.187249 6.000851
v -0.133817 0.408834 7.980507
v 0.046896 0.187249 7.980506
v 0.046896 0.278669 8.614082
v -0.115076 0.373287 7.213756
v -0.133817 0.483059 8.467686
v -0.318139 0.408834 1.643051
v 0.256459 0.408834 0.392005
v 0.107524 0.187249 0.289657
v 0.107524 -0.002606 0.289656
v -0.497289 0.187249 1.619339
v -0.497289 -0.002606 1.619340
v -0.770219 -0.002606 3.033687
v -0.858392 -0.002606 4.407095
v -0.677679 0.408834 4.407095
v -0.589895 0.408834 3.045520
v -0.770219 0.187249 3.033686
v -0.677679 0.408834 6.560495
v -0.858392 0.187249 4.407095
v -0.951097 0.187249 6.147322
v -0.885422 0.197813 5.987896
v -0.951097 -0.002606 6.147322
v -0.887075 -0.002606 5.987441
v -0.951097 -0.192460 6.147322
v -0.885422 -0.203024 5.987896
v -0.858392 -0.192460 4.407095
v -0.770219 -0.192460 3.033686
v -0.497289 -0.192461 1.619339
v 0.107524 -0.192461 0.289656
v 0.989332 -0.034926 8.382188
v 0.769431 -0.082065 9.005389
v -1.047484 -0.192460 8.928183
v 0.161638 -0.192460 8.604063
v -1.065240 -0.212913 8.959967
v 0.187844 -0.192460 9.165155
v -1.047484 -0.192460 9.496302
v -1.065240 -0.212913 9.456699
v 0.186383 -0.192460 9.133868
v 1.141274 -0.002605 22.501102
v 0.594085 0.187249 22.501102
v 0.594085 -0.192460 22.501102
v 0.046896 0.187249 22.501102
v -1.047484 -0.002605 22.501102
v 0.046896 -0.192460 22.501102
v -1.047484 0.187249 8.928183
v -1.065240 0.207702 8.962757
v 0.989331 0.029715 8.382189
v 0.769431 0.076853 9.005388
v 0.161638 0.187249 8.604063
v 0.187199 0.187249 9.151342
v 0.187844 0.187249 9.165155
v -1.047484 0.187249 9.496302
v -1.065240 0.207702 9.466456
v -1.047484 -0.192460 6.318368
v -1.066646 -0.205761 6.357365
v -1.047484 -0.192460 7.103318
v -1.066646 -0.205761 7.064652
v -0.507792 -0.414046 7.629222
v -1.047484 -0.192460 8.276958
v -1.065120 -0.205730 8.228925
v -0.677679 -0.414045 7.851783
v -1.065120 -0.205730 7.436985
v -1.047484 -0.192460 7.397276
v -0.919618 -0.290781 7.233279
v 0.133936 -0.287565 6.731817
v -0.133817 -0.414045 7.980507
v -0.133817 -0.414046 4.407095
v -0.677679 -0.414046 4.407095
v -0.140487 -0.414046 6.471330
v -0.589895 -0.414046 3.045520
v 0.046896 -0.192460 5.697663
v -0.677679 -0.414046 6.560494
v -0.677679 -0.414046 6.617600
v -0.047199 -0.414046 3.081130
v -0.318139 -0.414046 1.643051
v 0.256459 -0.414045 0.392004
v 0.704688 -0.414045 0.700028
v 0.221021 -0.414045 1.714417
v 0.853623 -0.192461 0.802376
v 0.400170 -0.192461 1.738132
v 0.133125 -0.192460 3.092962
v 0.463688 -0.002606 1.738132
v -1.047484 0.187249 9.496302
v 0.046896 -0.192460 4.407095
v 0.110413 -0.002606 4.407095
v 0.196643 -0.002606 3.092962
v 0.400170 0.187249 1.738131
v 0.917141 -0.002606 0.802376
v -1.047484 -0.192460 9.496302
v -1.047484 -0.192460 15.817081
v -1.047484 0.187249 15.817082
v -1.047484 -0.002606 16.501457
v -1.047484 -0.052018 16.164085
v -0.133817 -0.390768 6.560495
v -1.047484 0.046807 16.164085
v 0.046896 -0.192460 6.000851
v -0.115076 -0.378498 7.213756
v 0.046896 -0.192460 7.980506
v -0.133817 -0.488271 8.467686
v -0.677679 0.408834 6.560495
v -0.133817 -0.414045 7.980507
v 0.046896 -0.283880 8.614082
v -0.858392 0.187249 6.000851
v -0.858392 0.187249 7.851784
v -0.677679 0.408834 7.851784
v -0.697127 0.384988 7.246508
v -0.858392 0.278669 8.614082
v -0.677679 0.483059 8.467686
v -0.677679 -0.488271 8.467686
v -0.858392 -0.283880 8.614082
v -0.677679 -0.414045 7.851783
v -0.858392 -0.192460 7.851784
v -0.858392 -0.192460 6.000851
v -0.677679 -0.414046 6.560494
v -0.697127 -0.390199 7.246508
v -1.065120 0.200518 7.444111
v -1.047484 0.187249 7.397276
v -1.047484 0.187249 8.276958
v -1.065120 0.200518 8.247565
v -1.047484 -0.002606 8.276958
v -1.047484 -0.192460 8.276958
v -1.055655 -0.002606 8.243113
v -1.065120 -0.205730 8.228925
v -1.047484 -0.192460 7.397276
v -1.047484 -0.002606 7.397276
v -1.065120 -0.205730 7.436985
v -1.055655 -0.002606 7.433121
v -1.047484 -0.192460 7.397276
v -1.047484 -0.192460 7.103318
v -1.021052 -0.192460 6.681122
v -1.047484 -0.192460 6.318368
v -1.047484 -0.192460 6.147322
v 1.141275 -0.002606 7.954056
v 0.989332 -0.034926 8.382188
v 0.046896 -0.192460 6.147322
v 1.141275 -0.002606 6.147322
v -1.017483 -0.192460 7.800387
v -1.047484 -0.192460 8.928183
v 0.161638 -0.192460 8.604063
v -1.047484 0.187249 6.318368
v -1.047484 -0.192460 8.276958
v -1.066646 0.200549 6.351959
v -1.047484 0.187249 7.103318
v -1.047484 -0.002606 7.103319
v -1.066646 0.200549 7.071612
v -1.047484 -0.192460 7.103318
v -1.066646 -0.205761 7.064652
v -1.057180 -0.002606 7.066658
v -1.057180 -0.002606 6.357729
v -1.047484 -0.192460 6.318368
v -1.047484 -0.002606 6.318367
v -1.066646 -0.205761 6.357365
v -1.047484 -0.192460 8.928183
v -1.047484 0.187249 8.928183
v -1.065240 -0.212913 8.959967
v -1.065240 0.207702 8.962757
v -1.065240 -0.212913 9.456699
v -1.065240 0.207702 9.466456
v -1.047484 -0.192460 9.496302
v -1.047484 0.187249 9.496302
v 0.769431 0.076853 9.005388
v 0.881895 0.078031 8.787333
v 0.781122 -0.002606 8.986794
v 0.881895 -0.002606 8.787333
v 0.704688 0.408834 0.700027
v 0.769431 -0.082065 9.005389
v 0.881895 -0.083242 8.787333
v 1.132779 -0.002606 8.108454
v 0.256459 0.408834 0.392005
v 0.853623 0.187249 0.802376
v 0.107524 0.187249 0.289657
v 0.917141 -0.002606 0.802376
v 0.107524 -0.002606 0.289656
v 0.853623 -0.192461 0.802376
v 0.704688 -0.414045 0.700028
v 0.256459 -0.414045 0.392004
v 0.107524 -0.192461 0.289656
v 1.137647 -0.002606 16.476566
v 1.030300 -0.002606 13.211732
v 1.141275 -0.052018 12.484338
v 1.141275 -0.002606 12.146967
v 1.141275 -0.002606 9.187502
v -1.047484 -0.002605 22.501102
v -1.047484 -0.002606 16.501457
v -1.047484 -0.052018 16.164085
v -1.047484 -0.192460 15.817081
v -1.047484 -0.192460 9.496302
v 1.135620 -0.002606 16.697083
v 0.956535 -0.027676 16.560923
v 0.187844 -0.192460 9.165155
v 0.327111 -0.192460 12.146967
v 1.001525 -0.002606 19.310612
v 0.769431 -0.082065 9.005389
v 0.923002 0.002422 19.382843
v -0.257742 -0.192460 16.390280
v 0.447231 -0.097533 19.522636
v 0.046896 -0.192460 22.501102
v 1.141274 -0.002605 22.501102
v 0.964240 -0.013909 19.720047
v 0.594085 -0.192460 22.501102
v 1.017603 -0.002606 19.685459
vn 0.212383 0.707131 -0.674433
vn -0.161793 -0.000013 -0.986825
vn 0.115841 -0.895745 -0.429210
vn 0.632822 -0.755728 0.168558
vn 0.971006 0.000002 0.239054
vn 0.739157 0.638440 0.214574
vn 0.690698 -0.000004 -0.723143
vn 0.622342 -0.778029 0.085801
vn 0.470467 0.882412 -0.003231
vn 0.744445 0.000000 -0.667684
vn 0.367044 -0.929811 0.027040
vn 0.367044 0.929811 0.027040
vn 0.367044 -0.929811 0.027040
vn 0.610771 0.000000 0.791807
vn 0.367044 0.929811 0.027040
vn 0.516526 -0.530469 0.672163
vn -0.367305 0.925267 0.094703
vn 0.391379 0.860578 0.325927
vn 0.245463 -0.959938 0.135159
vn -0.385312 0.399293 0.831925
vn -0.858404 0.077196 0.507133
vn 0.588435 -0.540834 0.601035
vn -0.239682 -0.863718 0.443333
vn -0.385312 0.399293 0.831925
vn 0.891705 0.452350 -0.015542
vn -0.984642 0.171063 0.034885
vn -0.932985 -0.359498 0.017338
vn 0.516526 -0.530469 0.672163
vn 0.588435 -0.540834 0.601035
vn -0.858404 0.077196 0.507133
vn 0.997139 0.028147 0.070156
vn -0.577350 0.577350 -0.577350
vn -0.572562 -0.786854 -0.230291
vn -0.666667 -0.333333 -0.666667
vn -0.713137 -0.669800 0.206891
vn -0.707922 0.671452 -0.219085
vn -0.776800 0.485100 -0.401571
vn -0.823417 -0.485232 -0.294167
vn -0.688931 0.689053 0.224899
vn -0.814377 -0.515167 0.267194
vn -0.826090 0.519696 -0.217925
vn -0.835860 -0.513040 -0.195266
vn 0.901080 0.408895 0.144431
vn -0.727236 0.650612 0.218706
vn 0.992451 0.000000 -0.122640
vn 0.768628 -0.638905 0.031799
vn 0.768628 0.638905 0.031799
vn 0.115841 -0.895745 -0.429210
vn 0.336510 0.918516 0.207579
vn 0.442824 -0.854105 -0.272784
vn 0.470467 0.882412 -0.003231
vn 0.212383 0.707131 -0.674433
vn 0.632822 -0.755728 0.168558
vn 0.622342 -0.778029 0.085801
vn 0.739157 0.638440 0.214574
vn 0.000000 -1.000000 0.000001
vn 0.000000 1.000000 0.000000
vn 0.742967 0.000000 -0.669328
vn 0.023510 -0.960814 -0.276196
vn -0.666667 -0.333333 -0.666667
vn -0.577350 0.577350 -0.577350
vn 0.029343 0.855846 -0.516398
vn 0.834428 -0.001316 0.551116
vn 0.629716 0.000743 0.776825
vn 0.423415 0.000010 0.905936
vn 0.442824 -0.854105 -0.272784
vn 0.336510 0.918516 0.207579
vn 0.739157 0.638440 0.214574
vn -0.577350 0.577350 -0.577350
vn -0.707922 0.671452 -0.219085
vn 0.000000 1.000000 -0.000001
vn -0.727236 0.650612 0.218706
vn 0.029343 0.855846 -0.516398
vn -0.826090 0.519696 -0.217925
vn 0.000000 1.000000 0.000000
vn 0.054987 0.997000 -0.054483
vn -0.688931 0.689053 0.224899
vn -0.776800 0.485100 -0.401571
vn 0.000000 1.000000 0.000000
vn 0.300657 0.953139 -0.033648
vn 0.339305 0.937051 -0.082510
vn 0.304048 0.633204 -0.711764
vn 0.412737 0.125943 -0.902101
vn 0.384767 -0.540997 -0.747848
vn 0.746992 -0.607794 -0.269426
vn 0.480595 -0.697644 -0.531339
vn 0.988311 -0.117397 -0.097263
vn 0.660337 0.678779 -0.321269
vn 0.438976 0.644351 -0.626188
vn 0.899546 -0.001461 -0.436823
vn 0.604117 0.071964 -0.793640
vn 0.871503 0.483513 -0.081839
vn 0.874029 0.484941 0.030102
vn 0.852431 0.512943 0.101244
vn 0.848618 0.287654 -0.443962
vn 0.365346 0.930491 -0.026637
vn 0.428525 0.903327 0.019155
vn 0.424155 0.903278 0.064667
vn 0.521013 0.852700 -0.038057
vn 0.326184 0.939084 0.108285
vn -0.707922 0.671452 -0.219085
vn -0.874902 0.437068 -0.208609
vn -0.188718 0.978918 -0.078134
vn -0.924502 0.229842 0.304087
vn -0.727236 0.650612 0.218706
vn -0.688931 0.689053 0.224899
vn -0.851677 0.429100 0.300865
vn -0.356334 0.933867 0.030298
vn -0.646636 0.762181 0.030697
vn -0.826090 0.519696 -0.217925
vn -0.910279 0.388092 -0.144143
vn 0.106693 0.989269 0.099817
vn -0.494799 0.818697 0.291392
vn 0.470467 0.882412 -0.003231
vn 0.768628 0.638905 0.031799
vn 0.135090 0.990833 -0.000157
vn -0.721624 0.688993 0.067431
vn -0.788891 0.593204 0.160502
vn 0.367044 0.929811 0.027040
vn 0.212383 0.707131 -0.674433
vn 0.336510 0.918516 0.207579
vn -0.047079 0.797733 0.601171
vn 0.142153 0.828895 0.541042
vn 0.004074 0.998510 0.054416
vn 0.754204 0.656641 0.000000
vn 0.300657 0.953139 -0.033648
vn 0.891705 0.452350 -0.015542
vn 0.516526 -0.530469 0.672163
vn 0.764669 0.644403 -0.005180
vn 0.391379 0.860578 0.325927
vn -0.414938 0.902486 -0.115522
vn -0.091098 0.694884 -0.713328
vn 0.011412 0.244910 -0.969479
vn -0.282336 -0.045111 -0.958254
vn -0.908680 0.284860 -0.305214
vn -0.952712 0.000000 -0.303874
vn -0.991899 0.000000 -0.127026
vn -0.999161 0.001381 -0.040943
vn -0.414496 0.909967 -0.012349
vn -0.426614 0.903279 -0.045686
vn -0.907135 0.401280 -0.126812
vn -0.354667 0.934642 -0.025603
vn -0.940958 0.335329 -0.046404
vn -0.881995 0.328895 -0.337509
vn -0.906037 0.409581 -0.106488
vn -0.927104 -0.002833 -0.374793
vn -0.979886 -0.000001 -0.199559
vn -0.812933 -0.498002 -0.301884
vn -0.908393 -0.361836 -0.209517
vn -0.934032 -0.355965 -0.029555
vn -0.951075 -0.287018 -0.114356
vn -0.879247 -0.398854 -0.260463
vn -0.349920 -0.280746 -0.893721
vn 0.632822 -0.755728 0.168558
vn 0.622342 -0.778029 0.085801
vn -0.823417 -0.485232 -0.294167
vn 0.066541 -0.995240 -0.071196
vn -0.672095 -0.647688 -0.358871
vn 0.101046 -0.991571 0.081092
vn -0.752102 -0.598656 0.275597
vn -0.674594 -0.710005 0.202030
vn 0.083753 -0.996479 -0.003759
vn 0.744966 0.000000 0.667103
vn 0.142153 0.828895 0.541042
vn 0.093070 -0.551628 0.828881
vn -0.047079 0.797733 0.601171
vn -0.380054 -0.641969 0.665909
vn 0.036960 -0.898410 0.437600
vn -0.776800 0.485100 -0.401571
vn -0.708231 0.663962 -0.239922
vn 0.739157 0.638440 0.214574
vn 0.470467 0.882412 -0.003231
vn 0.054987 0.997000 -0.054483
vn 0.083749 0.996480 -0.003758
vn 0.106693 0.989269 0.099817
vn -0.494799 0.818697 0.291392
vn -0.633134 0.691706 0.347395
vn -0.572562 -0.786854 -0.230291
vn -0.870912 -0.412841 -0.266597
vn -0.814377 -0.515167 0.267194
vn -0.905193 -0.384686 0.180672
vn 0.000000 -1.000000 0.000001
vn -0.713137 -0.669800 0.206891
vn -0.892119 -0.420733 0.164645
vn -0.380286 -0.924835 -0.007949
vn -0.901791 -0.378698 -0.208231
vn -0.835860 -0.513040 -0.195266
vn -0.679770 -0.733368 0.009165
vn 0.407761 -0.907534 -0.100561
vn 0.386212 -0.922002 -0.027436
vn 0.427142 -0.904132 0.009779
vn -0.428543 -0.903335 -0.018370
vn 0.223332 -0.974613 -0.015876
vn -0.424285 -0.903290 -0.063639
vn 0.787234 -0.611721 -0.077845
vn -0.489396 -0.871594 -0.028564
vn -0.239869 -0.968795 -0.062441
vn 0.426556 -0.903273 0.046350
vn -0.405010 -0.902255 -0.147998
vn -0.049470 -0.914977 -0.400461
vn 0.659730 -0.584839 -0.471931
vn 0.465535 -0.871313 0.155215
vn 0.907998 -0.377084 -0.182613
vn 0.835897 -0.471799 0.280503
vn 0.880488 -0.457977 0.122470
vn 0.942895 -0.105152 0.316056
vn -0.494799 0.818697 0.291392
vn 0.875488 -0.482445 0.027696
vn 0.999463 0.000107 0.032759
vn 0.985539 0.109907 0.128968
vn 0.835222 0.473724 0.279267
vn 0.957318 0.067933 -0.280940
vn -0.752102 -0.598656 0.275597
vn -0.612927 -0.784032 0.098054
vn -0.721624 0.688993 0.067431
vn -0.894808 0.427729 0.127934
vn -0.874426 -0.468320 0.126712
vn 0.727774 -0.685771 -0.007997
vn -0.788891 0.593204 0.160502
vn 0.741138 -0.671341 -0.004000
vn 0.752627 -0.658419 -0.006121
vn 0.997139 0.028147 0.070156
vn 0.245463 -0.959938 0.135159
vn -0.354667 0.934642 -0.025603
vn 0.386212 -0.922002 -0.027436
vn 0.588435 -0.540834 0.601035
vn -0.774957 0.632013 0.000000
vn -0.984642 0.171063 0.034885
vn -0.356334 0.933867 0.030298
vn -0.774957 0.632014 0.000000
vn -0.385312 0.399293 0.831925
vn -0.367305 0.925267 0.094703
vn -0.239682 -0.863718 0.443333
vn -0.858404 0.077196 0.507133
vn -0.380286 -0.924835 -0.007949
vn -0.932985 -0.359498 0.017338
vn -0.774958 -0.632013 0.000000
vn -0.489396 -0.871594 -0.028564
vn -0.774958 -0.632013 0.000000
vn -0.910279 0.388092 -0.144143
vn -0.826090 0.519696 -0.217925
vn -0.688931 0.689053 0.224899
vn -0.851677 0.429100 0.300865
vn -0.943363 -0.016971 0.331328
vn -0.713137 -0.669800 0.206891
vn -0.990590 -0.012945 0.136250
vn -0.892119 -0.420733 0.164645
vn -0.835860 -0.513040 -0.195266
vn -0.958531 0.013784 -0.284653
vn -0.901791 -0.378698 -0.208231
vn -0.991042 0.010568 -0.133134
vn -0.835860 -0.513040 -0.195266
vn -0.814377 -0.515167 0.267194
vn 0.000000 -1.000000 0.000000
vn -0.572562 -0.786854 -0.230291
vn -0.666667 -0.333333 -0.666667
vn 0.971006 0.000002 0.239054
vn 0.632822 -0.755728 0.168558
vn 0.023510 -0.960814 -0.276196
vn 0.742967 0.000000 -0.669328
vn 0.000000 -1.000000 0.000000
vn -0.823417 -0.485232 -0.294167
vn 0.066541 -0.995240 -0.071196
vn -0.707922 0.671452 -0.219085
vn -0.713137 -0.669800 0.206891
vn -0.874902 0.437068 -0.208609
vn -0.727236 0.650612 0.218706
vn -0.938082 -0.017230 0.345984
vn -0.924502 0.229842 0.304087
vn -0.814377 -0.515167 0.267194
vn -0.905193 -0.384686 0.180672
vn -0.987080 -0.010173 0.159905
vn -0.995315 0.008106 -0.096341
vn -0.572562 -0.786854 -0.230291
vn -0.934267 -0.001598 -0.356572
vn -0.870912 -0.412841 -0.266597
vn -0.823417 -0.485232 -0.294167
vn -0.776800 0.485100 -0.401571
vn -0.672095 -0.647688 -0.358871
vn -0.708231 0.663962 -0.239922
vn -0.674594 -0.710005 0.202030
vn -0.633134 0.691706 0.347395
vn -0.752102 -0.598656 0.275597
vn -0.494799 0.818697 0.291392
vn 0.470467 0.882412 -0.003231
vn 0.744057 0.606202 0.280889
vn 0.891277 -0.000775 0.453458
vn 0.911452 -0.005164 0.411375
vn 0.521013 0.852700 -0.038057
vn 0.622342 -0.778029 0.085801
vn 0.741746 -0.604137 0.291259
vn 0.924292 -0.313181 0.218179
vn -0.091098 0.694884 -0.713328
vn 0.848618 0.287654 -0.443962
vn 0.011412 0.244910 -0.969479
vn 0.957318 0.067933 -0.280940
vn -0.282336 -0.045111 -0.958254
vn 0.907998 -0.377084 -0.182613
vn 0.659730 -0.584839 -0.471931
vn -0.049470 -0.914977 -0.400461
vn -0.349920 -0.280746 -0.893721
vn 0.610771 0.000000 0.791807
vn 0.901080 0.408895 0.144431
vn 0.768628 -0.638905 0.031799
vn 0.992451 0.000000 -0.122640
vn 0.690698 -0.000004 -0.723143
vn -0.380054 -0.641969 0.665909
vn -0.894808 0.427729 0.127934
vn -0.874426 -0.468320 0.126712
vn -0.612927 -0.784032 0.098054
vn -0.752102 -0.598656 0.275597
vn 0.744445 0.000000 -0.667684
vn 0.367044 -0.929811 0.027040
vn 0.101046 -0.991571 0.081092
vn 0.124356 -0.992228 -0.004345
vn 0.834428 -0.001316 0.551116
vn 0.622342 -0.778029 0.085801
vn 0.629716 0.000743 0.776825
vn -0.002305 -0.998509 0.054547
vn 0.442824 -0.854105 -0.272784
vn 0.036960 -0.898410 0.437600
vn 0.744966 0.000000 0.667103
vn 0.115841 -0.895745 -0.429210
vn 0.093070 -0.551628 0.828881
vn -0.161793 -0.000013 -0.986825
vt 0.382730 -0.468841
vt 0.392111 -0.461954
vt 0.382118 -0.461954
vt 1.834885 -0.549699
vt 1.936576 -0.520613
vt 1.833850 -0.520613
vt 0.329445 -0.484622
vt 0.264117 -0.484622
vt 0.268774 -0.533068
vt 0.373972 -0.517599
vt 0.338951 -0.517599
vt 0.339810 -0.533018
vt 0.371701 -0.453524
vt 0.340790 -0.461282
vt 0.371701 -0.469039
vt 0.984099 -0.799919
vt 0.964639 -0.667655
vt 0.964639 -0.766932
vt 0.964639 -0.766932
vt 0.984099 -0.634668
vt 0.984099 -0.634668
vt 0.984099 -0.799919
vt 0.964639 -0.667655
vt 0.840792 -0.882972
vt 0.773109 -0.976695
vt 0.844118 -0.984306
vt 0.844118 -0.984306
vt 0.770345 -0.892207
vt 0.770345 -0.892207
vt 0.840792 -0.882972
vt 0.773109 -0.976695
vt 0.437811 -0.423074
vt 0.425333 -0.367672
vt 0.437811 -0.367672
vt 0.282449 -0.367672
vt 0.425333 -0.423074
vt 0.234940 -0.423074
vt 0.234940 -0.367672
vt 0.282449 -0.423074
vt 0.368069 -0.367673
vt 0.346624 -0.423074
vt 0.346624 -0.367672
vt 0.389575 -0.534520
vt 0.368069 -0.423074
vt 0.533247 -0.520921
vt 0.488395 -0.538464
vt 0.487767 -0.511928
vt 0.530445 -0.462932
vt 0.474931 -0.484244
vt 0.474931 -0.446155
vt 0.753188 -0.543360
vt 0.530445 -0.467467
vt 0.760026 -0.462040
vt 0.762919 -0.543360
vt 0.756081 -0.462040
vt 0.267373 -0.892258
vt 0.267297 -0.894275
vt 0.787182 -0.481314
vt 0.868659 -0.509583
vt 0.950135 -0.509583
vt 0.950135 -0.453044
vt 0.868659 -0.453044
vt 0.409208 -0.465199
vt 0.419631 -0.467217
vt 0.419631 -0.463182
vt 0.468076 -0.446155
vt 0.468076 -0.484244
vt 0.187009 -0.694143
vt 0.021455 -0.390411
vt 0.034125 -0.390399
vt 0.058630 -0.395043
vt 0.092266 -0.390341
vt 0.021492 -0.552526
vt 0.114039 -0.390320
vt 0.147877 -0.393685
vt 0.203467 -0.569340
vt 0.179197 -0.390256
vt 0.227433 -0.390208
vt 0.879066 -0.703134
vt 0.905586 -0.765009
vt 0.816095 -0.816220
vt 0.772402 -0.874402
vt 0.761628 -0.871455
vt 0.772402 -0.874402
vt 0.753872 -0.818014
vt 0.768213 -0.828303
vt 0.728475 -0.833680
vt 0.753872 -0.818014
vt 0.768213 -0.828303
vt 0.751482 -0.837224
vt 0.757585 -0.851400
vt 0.736612 -0.805377
vt 0.642344 -0.800082
vt 0.546234 -0.801418
vt 0.356884 -0.789397
vt 0.793867 -0.763390
vt 0.642889 -0.755231
vt 0.545445 -0.756514
vt 0.348690 -0.750806
vt 0.444130 -0.756386
vt 0.783709 -0.599930
vt 0.786163 -0.599898
vt 0.805774 -0.671283
vt 0.838735 -0.599222
vt 0.841051 -0.599192
vt 0.927258 -0.602208
vt 0.925110 -0.602114
vt 0.895415 -0.672215
vt 0.850673 -0.625219
vt 0.862964 -0.599385
vt 0.866387 -0.599535
vt 0.978436 -0.167984
vt 0.954130 -0.346879
vt 0.989936 -0.082984
vt 0.738574 -0.027265
vt 0.762300 -0.147630
vt 0.495586 -0.338724
vt 0.469566 -0.340110
vt 0.442205 -0.045725
vt 0.212234 -0.047033
vt 0.226735 -0.122369
vt 0.010814 -0.184839
vt 0.010814 -0.103639
vt 0.454080 -0.223318
vt 0.147234 -0.969849
vt 0.293817 -0.956149
vt 0.291754 -0.997880
vt 0.338597 -0.997131
vt 0.237504 -0.951230
vt 0.329864 -0.955218
vt 0.441740 -0.663025
vt 0.330299 -0.669852
vt 0.321247 -0.628143
vt 0.316568 -0.601637
vt 0.439704 -0.618258
vt 0.436806 -0.592271
vt 0.543027 -0.591267
vt 0.644819 -0.589194
vt 0.644647 -0.661526
vt 0.545215 -0.662739
vt 0.544441 -0.617926
vt 0.802027 -0.672596
vt 0.645267 -0.616586
vt 0.773330 -0.617344
vt 0.760882 -0.622703
vt 0.772802 -0.590765
vt 0.760383 -0.592610
vt 0.773330 -0.617344
vt 0.760882 -0.622703
vt 0.645267 -0.616586
vt 0.544441 -0.617926
vt 0.439704 -0.618258
vt 0.321247 -0.628143
vt 0.747780 -0.543769
vt 0.719939 -0.462870
vt 0.592351 -0.543736
vt 0.684619 -0.543756
vt 0.591917 -0.540495
vt 0.675781 -0.462860
vt 0.581513 -0.462840
vt 0.582441 -0.469764
vt 0.676274 -0.467371
vt 0.976979 -0.603772
vt 0.991448 -0.520370
vt 0.962511 -0.520370
vt 0.991448 -0.436968
vt 0.976979 -0.270164
vt 0.962511 -0.436968
vt 0.592351 -0.543736
vt 0.591864 -0.540097
vt 0.747780 -0.543769
vt 0.719939 -0.462870
vt 0.684619 -0.543756
vt 0.675999 -0.464852
vt 0.675781 -0.462860
vt 0.581513 -0.462840
vt 0.582254 -0.468374
vt 0.783709 -0.599930
vt 0.786558 -0.599893
vt 0.841051 -0.599192
vt 0.838226 -0.599228
vt 0.879141 -0.701118
vt 0.927258 -0.602208
vt 0.923747 -0.602054
vt 0.895415 -0.672215
vt 0.865866 -0.599512
vt 0.862964 -0.599385
vt 0.850673 -0.625219
vt 0.816095 -0.816220
vt 0.905586 -0.765009
vt 0.642889 -0.755231
vt 0.644647 -0.661526
vt 0.793867 -0.763390
vt 0.545215 -0.662739
vt 0.736612 -0.805377
vt 0.802027 -0.672596
vt 0.805774 -0.671283
vt 0.545445 -0.756514
vt 0.441740 -0.663025
vt 0.330299 -0.669852
vt 0.348690 -0.750806
vt 0.444130 -0.756386
vt 0.356884 -0.789397
vt 0.446138 -0.801012
vt 0.546234 -0.801418
vt 0.449192 -0.827867
vt 0.951805 -0.431808
vt 0.642344 -0.800082
vt 0.642569 -0.827991
vt 0.547714 -0.829122
vt 0.446138 -0.801012
vt 0.361597 -0.814925
vt 0.951805 -0.377122
vt 0.496648 -0.377122
vt 0.496648 -0.431808
vt 0.447366 -0.404465
vt 0.471660 -0.397349
vt 0.189991 -0.938707
vt 0.471660 -0.411582
vt 0.147234 -0.969849
vt 0.237504 -0.951230
vt 0.291754 -0.997880
vt 0.329864 -0.955218
vt 0.187668 -0.882705
vt 0.293817 -0.956149
vt 0.338597 -0.997131
vt 0.144129 -0.849233
vt 0.281414 -0.821147
vt 0.283646 -0.863356
vt 0.238067 -0.867446
vt 0.337731 -0.818845
vt 0.329026 -0.861386
vt 0.329026 -0.861386
vt 0.337731 -0.818845
vt 0.283646 -0.863356
vt 0.281414 -0.821147
vt 0.144129 -0.849233
vt 0.187668 -0.882705
vt 0.238067 -0.867446
vt 0.866387 -0.584908
vt 0.862964 -0.584758
vt 0.927258 -0.587581
vt 0.925110 -0.587487
vt 0.928864 -0.559924
vt 0.927258 -0.587581
vt 0.926416 -0.559815
vt 0.923747 -0.587427
vt 0.862964 -0.584758
vt 0.865243 -0.557101
vt 0.865866 -0.584885
vt 0.867835 -0.557216
vt 0.114055 -0.390316
vt 0.092282 -0.390338
vt 0.061011 -0.394284
vt 0.034141 -0.390395
vt 0.021472 -0.390408
vt 0.155290 -0.717107
vt 0.187013 -0.694147
vt 0.021505 -0.552522
vt 0.021472 -0.717062
vt 0.143914 -0.394731
vt 0.227448 -0.390205
vt 0.203483 -0.569345
vt 0.783709 -0.584867
vt 0.179212 -0.390252
vt 0.786163 -0.584835
vt 0.841051 -0.584130
vt 0.840996 -0.556371
vt 0.838735 -0.584160
vt 0.841051 -0.584130
vt 0.838226 -0.584166
vt 0.838316 -0.556404
vt 0.786494 -0.557043
vt 0.783709 -0.584867
vt 0.783617 -0.557079
vt 0.786558 -0.584830
vt 0.547353 -0.463107
vt 0.574100 -0.463107
vt 0.547353 -0.466314
vt 0.574100 -0.466707
vt 0.547353 -0.536293
vt 0.574100 -0.537668
vt 0.547353 -0.543143
vt 0.574100 -0.543143
vt 0.992956 -0.921690
vt 0.979537 -0.942278
vt 0.996399 -0.933302
vt 0.982491 -0.952116
vt 0.672021 -0.940292
vt 0.992956 -0.921690
vt 0.979537 -0.942278
vt 0.934047 -0.979570
vt 0.726128 -0.940292
vt 0.654043 -0.901094
vt 0.744107 -0.901094
vt 0.654043 -0.867509
vt 0.744107 -0.867509
vt 0.654043 -0.901094
vt 0.672021 -0.940292
vt 0.726128 -0.940292
vt 0.744107 -0.901094
vt 0.449400 -0.020445
vt 0.685566 -0.040424
vt 0.738574 -0.027265
vt 0.762969 -0.026443
vt 0.977031 -0.027650
vt 0.011718 -0.345805
vt 0.445806 -0.341040
vt 0.469566 -0.340110
vt 0.495586 -0.338724
vt 0.954130 -0.346879
vt 0.432103 -0.019974
vt 0.442205 -0.045725
vt 0.978436 -0.167984
vt 0.762300 -0.147630
vt 0.242558 -0.039636
vt 0.989936 -0.082984
vt 0.237324 -0.051751
vt 0.454080 -0.223318
vt 0.226735 -0.122369
vt 0.010814 -0.184839
vt 0.010814 -0.019689
vt 0.212234 -0.047033
vt 0.010814 -0.103639
vt 0.214967 -0.039407
g Body.machete.smd.mesh_0
f 2/2/2 3/3/3 1/1/1
f 199/199/199 202/202/202 198/198/198
f 198/198/198 202/202/202 205/205/205
f 198/198/198 205/205/205 208/208/208
f 208/208/208 205/205/205 209/209/209
f 204/204/204 205/205/205 202/202/202
f 152/152/152 199/199/199 194/194/194
f 153/153/153 199/199/199 152/152/152
f 200/200/200 199/199/199 153/153/153
f 200/200/200 202/202/202 199/199/199
f 201/201/201 202/202/202 200/200/200
f 203/203/203 202/202/202 201/201/201
f 204/204/204 202/202/202 203/203/203
f 203/203/203 206/206/206 204/204/204
f 204/204/204 206/206/206 205/205/205
f 210/210/210 205/205/205 206/206/206
f 209/209/209 205/205/205 210/210/210
f 210/210/210 93/93/93 209/209/209
f 210/210/210 94/94/94 93/93/93
f 211/211/211 94/94/94 210/210/210
f 210/210/210 206/206/206 211/211/211
f 211/211/211 206/206/206 212/212/212
f 212/212/212 206/206/206 203/203/203
f 211/211/211 95/95/95 99/99/99
f 212/212/212 95/95/95 211/211/211
f 132/132/132 135/135/135 131/131/131
f 99/99/99 132/132/132 131/131/131
f 99/99/99 131/131/131 100/100/100
f 211/211/211 99/99/99 100/100/100
f 211/211/211 100/100/100 98/98/98
f 211/211/211 98/98/98 94/94/94
f 94/94/94 98/98/98 97/97/97
f 94/94/94 97/97/97 93/93/93
f 93/93/93 97/97/97 96/96/96
f 93/93/93 96/96/96 92/92/92
f 209/209/209 93/93/93 92/92/92
f 209/209/209 92/92/92 87/87/87
f 208/208/208 209/209/209 87/87/87
f 208/208/208 87/87/87 195/195/195
f 191/191/191 208/208/208 195/195/195
f 198/198/198 208/208/208 191/191/191
f 191/191/191 194/194/194 198/198/198
f 198/198/198 194/194/194 199/199/199
f 92/92/92 96/96/96 88/88/88
f 92/92/92 88/88/88 90/90/90
f 87/87/87 92/92/92 90/90/90
f 87/87/87 90/90/90 85/85/85
f 195/195/195 87/87/87 85/85/85
f 195/195/195 85/85/85 189/189/189
f 189/189/189 193/193/193 195/195/195
f 195/195/195 193/193/193 191/191/191
f 193/193/193 192/192/192 191/191/191
f 191/191/191 192/192/192 194/194/194
f 151/151/151 194/194/194 192/192/192
f 152/152/152 194/194/194 151/151/151
f 151/151/151 136/136/136 152/152/152
f 152/152/152 136/136/136 153/153/153
f 153/153/153 136/136/136 134/134/134
f 134/134/134 136/136/136 135/135/135
f 134/134/134 135/135/135 133/133/133
f 133/133/133 135/135/135 132/132/132
f 193/193/193 196/196/196 192/192/192
f 197/197/197 196/196/196 193/193/193
f 197/197/197 179/179/179 178/178/178
f 197/197/197 181/181/181 179/179/179
f 138/138/138 151/151/151 150/150/150
f 150/150/150 147/147/147 138/138/138
f 150/150/150 149/149/149 147/147/147
f 149/149/149 146/146/146 147/147/147
f 149/149/149 148/148/148 146/146/146
f 149/149/149 196/196/196 148/148/148
f 150/150/150 196/196/196 149/149/149
f 150/150/150 192/192/192 196/196/196
f 151/151/151 192/192/192 150/150/150
f 138/138/138 147/147/147 145/145/145
f 138/138/138 145/145/145 143/143/143
f 138/138/138 143/143/143 137/137/137
f 137/137/137 143/143/143 141/141/141
f 143/143/143 140/140/140 141/141/141
f 143/143/143 139/139/139 140/140/140
f 145/145/145 139/139/139 143/143/143
f 145/145/145 142/142/142 139/139/139
f 145/145/145 144/144/144 142/142/142
f 147/147/147 144/144/144 145/145/145
f 147/147/147 146/146/146 144/144/144
f 109/109/109 110/110/110 111/111/111
f 109/109/109 111/111/111 108/108/108
f 108/108/108 103/103/103 109/109/109
f 79/79/79 103/103/103 108/108/108
f 79/79/79 96/96/96 103/103/103
f 96/96/96 142/142/142 103/103/103
f 97/97/97 142/142/142 96/96/96
f 97/97/97 139/139/139 142/142/142
f 98/98/98 139/139/139 97/97/97
f 98/98/98 140/140/140 139/139/139
f 100/100/100 140/140/140 98/98/98
f 100/100/100 131/131/131 140/140/140
f 131/131/131 141/141/141 140/140/140
f 131/131/131 135/135/135 141/141/141
f 137/137/137 141/141/141 135/135/135
f 137/137/137 135/135/135 136/136/136
f 137/137/137 136/136/136 151/151/151
f 137/137/137 151/151/151 138/138/138
f 80/80/80 96/96/96 79/79/79
f 108/108/108 111/111/111 107/107/107
f 108/108/108 107/107/107 106/106/106
f 102/102/102 103/103/103 101/101/101
f 102/102/102 109/109/109 103/103/103
f 104/104/104 109/109/109 102/102/102
f 104/104/104 105/105/105 109/109/109
f 188/188/188 180/180/180 181/181/181
f 188/188/188 181/181/181 197/197/197
f 185/185/185 188/188/188 197/197/197
f 185/185/185 197/197/197 182/182/182
f 182/182/182 197/197/197 193/193/193
f 182/182/182 193/193/193 190/190/190
f 189/189/189 190/190/190 193/193/193
f 292/292/292 190/190/190 189/189/189
f 291/291/291 190/190/190 292/292/292
f 288/288/288 291/291/291 292/292/292
f 288/288/288 290/290/290 291/291/291
f 287/287/287 290/290/290 288/288/288
f 288/288/288 286/286/286 287/287/287
f 287/287/287 286/286/286 285/285/285
f 80/80/80 285/285/285 286/286/286
f 80/80/80 286/286/286 81/81/81
f 81/81/81 96/96/96 80/80/80
f 81/81/81 88/88/88 96/96/96
f 291/291/291 290/290/290 190/190/190
f 288/288/288 292/292/292 286/286/286
f 81/81/81 286/286/286 292/292/292
f 184/184/184 185/185/185 183/183/183
f 186/186/186 185/185/185 184/184/184
f 186/186/186 188/188/188 185/185/185
f 187/187/187 188/188/188 186/186/186
f 90/90/90 88/88/88 91/91/91
f 86/86/86 90/90/90 91/91/91
f 85/85/85 90/90/90 86/86/86
f 189/189/189 85/85/85 86/86/86
f 189/189/189 86/86/86 84/84/84
f 84/84/84 86/86/86 91/91/91
f 84/84/84 91/91/91 83/83/83
f 83/83/83 91/91/91 89/89/89
f 83/83/83 89/89/89 82/82/82
f 82/82/82 89/89/89 81/81/81
f 81/81/81 89/89/89 88/88/88
f 91/91/91 88/88/88 89/89/89
f 34/34/34 36/36/36 32/32/32
f 33/33/33 36/36/36 34/34/34
f 30/30/30 31/31/31 27/27/27
f 29/29/29 31/31/31 30/30/30
f 26/26/26 28/28/28 24/24/24
f 25/25/25 28/28/28 26/26/26
f 22/22/22 23/23/23 19/19/19
f 21/21/21 23/23/23 22/22/22
f 18/18/18 20/20/20 16/16/16
f 17/17/17 20/20/20 18/18/18
f 14/14/14 15/15/15 13/13/13
f 316/316/316 313/313/313 312/312/312
f 316/316/316 312/312/312 119/119/119
f 316/316/316 319/319/319 313/313/313
f 319/319/319 303/303/303 313/313/313
f 313/313/313 303/303/303 302/302/302
f 303/303/303 119/119/119 302/302/302
f 124/124/124 119/119/119 303/303/303
f 316/316/316 119/119/119 124/124/124
f 318/318/318 316/316/316 124/124/124
f 318/318/318 319/319/319 316/316/316
f 320/320/320 319/319/319 318/318/318
f 320/320/320 321/321/321 319/319/319
f 323/323/323 321/321/321 320/320/320
f 323/323/323 324/324/324 321/321/321
f 323/323/323 322/322/322 324/324/324
f 325/325/325 322/322/322 323/323/323
f 120/120/120 322/322/322 325/325/325
f 120/120/120 123/123/123 322/322/322
f 121/121/121 123/123/123 120/120/120
f 121/121/121 122/122/122 123/123/123
f 318/318/318 124/124/124 121/121/121
f 307/307/307 319/319/319 321/321/321
f 315/315/315 303/303/303 319/319/319
f 315/315/315 304/304/304 303/303/303
f 315/315/315 305/305/305 304/304/304
f 121/121/121 124/124/124 122/122/122
f 308/308/308 122/122/122 124/124/124
f 308/308/308 124/124/124 118/118/118
f 118/118/118 124/124/124 117/117/117
f 117/117/117 124/124/124 303/303/303
f 117/117/117 303/303/303 116/116/116
f 116/116/116 303/303/303 115/115/115
f 116/116/116 115/115/115 305/305/305
f 116/116/116 305/305/305 114/114/114
f 114/114/114 305/305/305 306/306/306
f 317/317/317 306/306/306 305/305/305
f 317/317/317 305/305/305 315/315/315
f 314/314/314 317/317/317 315/315/315
f 314/314/314 315/315/315 311/311/311
f 311/311/311 315/315/315 310/310/310
f 310/310/310 315/315/315 319/319/319
f 310/310/310 319/319/319 309/309/309
f 309/309/309 319/319/319 308/308/308
f 308/308/308 319/319/319 307/307/307
f 307/307/307 122/122/122 308/308/308
f 112/112/112 116/116/116 114/114/114
f 113/113/113 116/116/116 112/112/112
f 113/113/113 117/117/117 116/116/116
f 223/223/223 233/233/233 235/235/235
f 234/234/234 235/235/235 233/233/233
f 236/236/236 235/235/235 234/234/234
f 236/236/236 239/239/239 235/235/235
f 237/237/237 239/239/239 236/236/236
f 237/237/237 238/238/238 239/239/239
f 225/225/225 235/235/235 56/56/56
f 223/223/223 235/235/235 225/225/225
f 226/226/226 223/223/223 225/225/225
f 226/226/226 225/225/225 222/222/222
f 222/222/222 225/225/225 221/221/221
f 222/222/222 221/221/221 220/220/220
f 220/220/220 221/221/221 218/218/218
f 11/11/11 12/12/12 10/10/10
f 70/70/70 73/73/73 69/69/69
f 71/71/71 73/73/73 70/70/70
f 72/72/72 73/73/73 71/71/71
f 255/255/255 256/256/256 259/259/259
f 255/255/255 259/259/259 254/254/254
f 254/254/254 259/259/259 253/253/253
f 253/253/253 259/259/259 252/252/252
f 252/252/252 259/259/259 261/261/261
f 263/263/263 261/261/261 259/259/259
f 263/263/263 259/259/259 260/260/260
f 263/263/263 260/260/260 258/258/258
f 258/258/258 260/260/260 257/257/257
f 68/68/68 257/257/257 260/260/260
f 68/68/68 260/260/260 76/76/76
f 76/76/76 260/260/260 73/73/73
f 72/72/72 76/76/76 73/73/73
f 74/74/74 76/76/76 72/72/72
f 75/75/75 76/76/76 74/74/74
f 77/77/77 76/76/76 75/75/75
f 77/77/77 78/78/78 76/76/76
f 263/263/263 265/265/265 261/261/261
f 262/262/262 265/265/265 263/263/263
f 174/174/174 170/170/170 177/177/177
f 177/177/177 175/175/175 174/174/174
f 174/174/174 175/175/175 172/172/172
f 174/174/174 172/172/172 173/173/173
f 173/173/173 172/172/172 171/171/171
f 173/173/173 170/170/170 174/174/174
f 173/173/173 169/169/169 170/170/170
f 177/177/177 176/176/176 175/175/175
f 8/8/8 9/9/9 7/7/7
f 167/167/167 168/168/168 166/166/166
f 166/166/166 168/168/168 165/165/165
f 166/166/166 165/165/165 164/164/164
f 164/164/164 165/165/165 163/163/163
f 162/162/162 155/155/155 159/159/159
f 159/159/159 161/161/161 162/162/162
f 162/162/162 161/161/161 158/158/158
f 162/162/162 158/158/158 157/157/157
f 157/157/157 158/158/158 156/156/156
f 157/157/157 155/155/155 162/162/162
f 157/157/157 154/154/154 155/155/155
f 159/159/159 160/160/160 161/161/161
f 5/5/5 6/6/6 4/4/4
f 283/283/283 284/284/284 282/282/282
f 283/283/283 282/282/282 281/281/281
f 281/281/281 282/282/282 280/280/280
f 281/281/281 280/280/280 279/279/279
f 279/279/279 280/280/280 278/278/278
f 279/279/279 278/278/278 277/277/277
f 275/275/275 274/274/274 276/276/276
f 275/275/275 266/266/266 264/264/264
f 273/273/273 266/266/266 275/275/275
f 275/275/275 276/276/276 273/273/273
f 273/273/273 276/276/276 271/271/271
f 273/273/273 271/271/271 272/272/272
f 272/272/272 271/271/271 270/270/270
f 272/272/272 270/270/270 268/268/268
f 272/272/272 268/268/268 269/269/269
f 269/269/269 268/268/268 267/267/267
f 272/272/272 266/266/266 273/273/273
f 272/272/272 269/269/269 266/266/266
f 243/243/243 244/244/244 242/242/242
f 249/249/249 248/248/248 250/250/250
f 249/249/249 250/250/250 251/251/251
f 251/251/251 250/250/250 247/247/247
f 251/251/251 247/247/247 246/246/246
f 246/246/246 247/247/247 245/245/245
f 246/246/246 245/245/245 244/244/244
f 246/246/246 244/244/244 243/243/243
f 240/240/240 246/246/246 243/243/243
f 240/240/240 251/251/251 246/246/246
f 241/241/241 251/251/251 240/240/240
f 241/241/241 249/249/249 251/251/251
f 227/227/227 230/230/230 224/224/224
f 228/228/228 230/230/230 227/227/227
f 228/228/228 229/229/229 230/230/230
f 228/228/228 232/232/232 229/229/229
f 232/232/232 126/126/126 229/229/229
f 232/232/232 130/130/130 126/126/126
f 130/130/130 127/127/127 126/126/126
f 130/130/130 128/128/128 127/127/127
f 229/229/229 126/126/126 57/57/57
f 231/231/231 232/232/232 228/228/228
f 126/126/126 127/127/127 129/129/129
f 129/129/129 127/127/127 125/125/125
f 294/294/294 293/293/293 289/289/289
f 294/294/294 295/295/295 293/293/293
f 296/296/296 295/295/295 294/294/294
f 296/296/296 297/297/297 295/295/295
f 298/298/298 297/297/297 296/296/296
f 298/298/298 301/301/301 297/297/297
f 299/299/299 301/301/301 298/298/298
f 299/299/299 300/300/300 301/301/301
f 38/38/38 39/39/39 35/35/35
f 37/37/37 39/39/39 38/38/38
f 42/42/42 44/44/44 40/40/40
f 41/41/41 44/44/44 42/42/42
f 46/46/46 47/47/47 43/43/43
f 45/45/45 47/47/47 46/46/46
f 50/50/50 52/52/52 48/48/48
f 49/49/49 52/52/52 50/50/50
f 54/54/54 55/55/55 51/51/51
f 53/53/53 55/55/55 54/54/54
f 59/59/59 62/62/62 58/58/58
f 60/60/60 62/62/62 59/59/59
f 60/60/60 61/61/61 62/62/62
f 64/64/64 65/65/65 63/63/63
f 67/67/67 65/65/65 64/64/64
f 67/67/67 66/66/66 65/65/65
f 213/213/213 215/215/215 207/207/207
f 214/214/214 215/215/215 213/213/213
f 217/217/217 215/215/215 214/214/214
f 217/217/217 219/219/219 215/215/215
f 216/216/216 219/219/219 217/217/217
